EESchema Schematic File Version 4
EELAYER 30 0
EELAYER END
$Descr A4 11693 8268
encoding utf-8
Sheet 1 1
Title ""
Date ""
Rev ""
Comp ""
Comment1 ""
Comment2 ""
Comment3 ""
Comment4 ""
$EndDescr
$Comp
L esp32_doit_devkit_v1:ESP32_DEVKIT U3
U 1 1 63A73BA8
P 5700 2100
F 0 "U3" H 5688 1135 50  0000 C CNN
F 1 "ESP32_DEVKIT" H 5688 1226 50  0000 C CNN
F 2 "ESP32:ESP32-NodeMCU" H 5850 2825 50  0001 C CNN
F 3 "https://www.espressif.com/sites/default/files/documentation/esp32-wroom-32_datasheet_en.pdf" H 5850 2825 50  0001 C CNN
	1    5700 2100
	-1   0    0    1   
$EndComp
$Comp
L DFRobot:DFRobot0665 U1
U 1 1 63A749A0
P 2100 1900
F 0 "U1" H 2342 1085 50  0000 C CNN
F 1 "DFRobot0665" H 2342 1176 50  0000 C CNN
F 2 "DFRobot:DFR0665" H 2100 1900 50  0001 C CNN
F 3 "" H 2100 1900 50  0001 C CNN
	1    2100 1900
	-1   0    0    1   
$EndComp
Text GLabel 2900 2250 2    50   Input ~ 0
SCLK
Text GLabel 2900 2150 2    50   Input ~ 0
MOSI
Text GLabel 2900 2050 2    50   Input ~ 0
MISO
Text GLabel 2900 1950 2    50   Input ~ 0
CS
Text GLabel 2750 1850 2    50   Input ~ 0
Reset
Text GLabel 2750 1750 2    50   Input ~ 0
DC
Wire Wire Line
	2750 1850 2450 1850
Wire Wire Line
	2750 1750 2450 1750
Text GLabel 5000 1600 0    50   Input ~ 0
CS
Text GLabel 5000 1800 0    50   Input ~ 0
Reset
Text GLabel 5000 2100 0    50   Input ~ 0
DC
Text GLabel 5000 2200 0    50   Input ~ 0
SCLK
Text GLabel 5000 2800 0    50   Input ~ 0
MOSI
Text GLabel 5000 2300 0    50   Input ~ 0
MISO
Wire Wire Line
	5000 1600 5200 1600
Wire Wire Line
	5000 1800 5200 1800
Wire Wire Line
	5000 2100 5200 2100
Wire Wire Line
	5000 2200 5200 2200
Wire Wire Line
	5000 2300 5200 2300
Wire Wire Line
	5000 2400 5200 2400
Wire Wire Line
	5000 2800 5200 2800
$Comp
L power:+3.3V #PWR0101
U 1 1 63A8BC6F
P 4950 1250
F 0 "#PWR0101" H 4950 1100 50  0001 C CNN
F 1 "+3.3V" H 4965 1423 50  0000 C CNN
F 2 "" H 4950 1250 50  0001 C CNN
F 3 "" H 4950 1250 50  0001 C CNN
	1    4950 1250
	1    0    0    -1  
$EndComp
$Comp
L power:+3.3V #PWR0102
U 1 1 63A8C285
P 3200 2600
F 0 "#PWR0102" H 3200 2450 50  0001 C CNN
F 1 "+3.3V" H 3215 2773 50  0000 C CNN
F 2 "" H 3200 2600 50  0001 C CNN
F 3 "" H 3200 2600 50  0001 C CNN
	1    3200 2600
	-1   0    0    1   
$EndComp
$Comp
L power:GND #PWR0103
U 1 1 63A8C824
P 2600 2350
F 0 "#PWR0103" H 2600 2100 50  0001 C CNN
F 1 "GND" V 2605 2222 50  0000 R CNN
F 2 "" H 2600 2350 50  0001 C CNN
F 3 "" H 2600 2350 50  0001 C CNN
	1    2600 2350
	0    -1   -1   0   
$EndComp
$Comp
L power:GND #PWR0104
U 1 1 63A8CE8B
P 4750 1500
F 0 "#PWR0104" H 4750 1250 50  0001 C CNN
F 1 "GND" V 4755 1372 50  0000 R CNN
F 2 "" H 4750 1500 50  0001 C CNN
F 3 "" H 4750 1500 50  0001 C CNN
	1    4750 1500
	0    1    1    0   
$EndComp
$Comp
L power:GND #PWR0105
U 1 1 63A8D177
P 6500 1500
F 0 "#PWR0105" H 6500 1250 50  0001 C CNN
F 1 "GND" V 6505 1372 50  0000 R CNN
F 2 "" H 6500 1500 50  0001 C CNN
F 3 "" H 6500 1500 50  0001 C CNN
	1    6500 1500
	0    -1   -1   0   
$EndComp
Wire Wire Line
	4950 1250 4950 1400
Wire Wire Line
	4950 1400 5200 1400
Wire Wire Line
	4750 1500 5200 1500
Wire Wire Line
	6200 1500 6225 1500
Connection ~ 6225 1500
Wire Wire Line
	6225 1500 6500 1500
Wire Wire Line
	2600 2350 2450 2350
Wire Wire Line
	2450 2450 3200 2450
Wire Wire Line
	3200 2450 3200 2600
Wire Wire Line
	2450 1650 3200 1650
Wire Wire Line
	3200 1650 3200 2450
Connection ~ 3200 2450
$Comp
L power:+3.3V #PWR0106
U 1 1 63A8F851
P 9400 1250
F 0 "#PWR0106" H 9400 1100 50  0001 C CNN
F 1 "+3.3V" H 9415 1423 50  0000 C CNN
F 2 "" H 9400 1250 50  0001 C CNN
F 3 "" H 9400 1250 50  0001 C CNN
	1    9400 1250
	1    0    0    -1  
$EndComp
$Comp
L pspice:DIODE D1
U 1 1 63A8FD8A
P 9000 1650
F 0 "D1" V 9046 1522 50  0000 R CNN
F 1 "DIODE" V 8955 1522 50  0000 R CNN
F 2 "Diode_THT:D_A-405_P7.62mm_Horizontal" H 9000 1650 50  0001 C CNN
F 3 "~" H 9000 1650 50  0001 C CNN
	1    9000 1650
	0    -1   -1   0   
$EndComp
Wire Wire Line
	9400 1250 9400 1350
Wire Wire Line
	9400 1600 9600 1600
Wire Wire Line
	9000 1450 9000 1350
Wire Wire Line
	9000 1350 9400 1350
Connection ~ 9400 1350
Wire Wire Line
	9400 1350 9400 1600
$Comp
L Device:C C2
U 1 1 63A913A1
P 8500 1600
F 0 "C2" H 8615 1646 50  0000 L CNN
F 1 "100nF" H 8615 1555 50  0000 L CNN
F 2 "Capacitor_SMD:C_1206_3216Metric_Pad1.33x1.80mm_HandSolder" H 8538 1450 50  0001 C CNN
F 3 "~" H 8500 1600 50  0001 C CNN
	1    8500 1600
	1    0    0    -1  
$EndComp
Wire Wire Line
	9000 1850 9000 2000
Wire Wire Line
	9000 2000 9400 2000
Connection ~ 9000 1350
Connection ~ 9000 2000
Wire Wire Line
	8500 1350 8500 1450
Wire Wire Line
	8500 1350 9000 1350
Wire Wire Line
	8500 2000 8500 1750
Wire Wire Line
	8500 2000 8800 2000
Wire Wire Line
	8800 2250 8800 2000
Connection ~ 8800 2000
Wire Wire Line
	8800 2000 9000 2000
$Comp
L power:GND #PWR0107
U 1 1 63A954C3
P 8800 2800
F 0 "#PWR0107" H 8800 2550 50  0001 C CNN
F 1 "GND" H 8805 2627 50  0000 C CNN
F 2 "" H 8800 2800 50  0001 C CNN
F 3 "" H 8800 2800 50  0001 C CNN
	1    8800 2800
	1    0    0    -1  
$EndComp
Wire Wire Line
	8800 2800 8800 2650
$Comp
L Device:R R7
U 1 1 63A960EE
P 8350 2450
F 0 "R7" V 8143 2450 50  0000 C CNN
F 1 "1k" V 8234 2450 50  0000 C CNN
F 2 "Resistor_SMD:R_1206_3216Metric_Pad1.30x1.75mm_HandSolder" V 8280 2450 50  0001 C CNN
F 3 "~" H 8350 2450 50  0001 C CNN
	1    8350 2450
	0    1    1    0   
$EndComp
Text GLabel 8200 2450 0    50   Input ~ 0
Motor
Wire Notes Line
	7800 3200 10700 3200
Wire Notes Line
	10700 3200 10700 850 
Wire Notes Line
	10700 850  7800 850 
Wire Notes Line
	7800 850  7800 3200
Text Notes 7850 950  0    50   ~ 0
Motor
Wire Notes Line
	1000 850  1000 3050
Wire Notes Line
	1000 3050 3550 3050
Wire Notes Line
	3550 3050 3550 850 
Wire Notes Line
	3550 850  1000 850 
Text Notes 1050 950  0    50   ~ 0
Screen
Wire Notes Line
	4050 850  4050 3200
Wire Notes Line
	4050 3200 7250 3200
Wire Notes Line
	7250 3200 7250 850 
Wire Notes Line
	7250 850  4050 850 
Text Notes 4100 950  0    50   ~ 0
ESP32 Wroom
$Comp
L Switch:SW_DIP_x04 SW1
U 1 1 63AA51F5
P 9750 5100
F 0 "SW1" V 9796 4870 50  0000 R CNN
F 1 "SW_DIP_x04" V 9705 4870 50  0000 R CNN
F 2 "Button_Switch_THT:SW_DIP_SPSTx04_Slide_9.78x12.34mm_W7.62mm_P2.54mm" H 9750 5100 50  0001 C CNN
F 3 "~" H 9750 5100 50  0001 C CNN
	1    9750 5100
	0    -1   -1   0   
$EndComp
$Comp
L DFRobot:SEN0032 U2
U 1 1 63AA63A7
P 2500 4400
F 0 "U2" H 2878 4451 50  0000 L CNN
F 1 "SEN0032" H 2878 4360 50  0000 L CNN
F 2 "DFRobot:SEN0032" H 2500 4400 50  0001 C CNN
F 3 "" H 2500 4400 50  0001 C CNN
	1    2500 4400
	1    0    0    -1  
$EndComp
$Comp
L power:+5V #PWR0108
U 1 1 63AA7B57
P 6400 1300
F 0 "#PWR0108" H 6400 1150 50  0001 C CNN
F 1 "+5V" H 6415 1473 50  0000 C CNN
F 2 "" H 6400 1300 50  0001 C CNN
F 3 "" H 6400 1300 50  0001 C CNN
	1    6400 1300
	1    0    0    -1  
$EndComp
Wire Wire Line
	6200 1400 6225 1400
Wire Wire Line
	6400 1400 6400 1300
Connection ~ 6225 1400
Wire Wire Line
	6225 1400 6400 1400
$Comp
L power:GND #PWR0109
U 1 1 63AA9904
P 1950 3950
F 0 "#PWR0109" H 1950 3700 50  0001 C CNN
F 1 "GND" H 1955 3777 50  0000 C CNN
F 2 "" H 1950 3950 50  0001 C CNN
F 3 "" H 1950 3950 50  0001 C CNN
	1    1950 3950
	-1   0    0    1   
$EndComp
$Comp
L power:+5V #PWR0110
U 1 1 63AA9E5C
P 1700 3950
F 0 "#PWR0110" H 1700 3800 50  0001 C CNN
F 1 "+5V" H 1715 4123 50  0000 C CNN
F 2 "" H 1700 3950 50  0001 C CNN
F 3 "" H 1700 3950 50  0001 C CNN
	1    1700 3950
	1    0    0    -1  
$EndComp
Wire Wire Line
	1950 3950 1950 4050
Wire Wire Line
	1950 4050 2150 4050
Wire Wire Line
	1950 4050 1950 4550
Wire Wire Line
	1950 4550 2150 4550
Connection ~ 1950 4050
Wire Wire Line
	1700 3950 1700 4150
Wire Wire Line
	1700 4150 2050 4150
Wire Wire Line
	2150 4250 2050 4250
Wire Wire Line
	2050 4250 2050 4150
Connection ~ 2050 4150
Wire Wire Line
	2050 4150 2150 4150
Text GLabel 1600 4650 0    50   Input ~ 0
SDA
Text GLabel 1600 4750 0    50   Input ~ 0
SCL
Wire Notes Line
	1000 3750 1000 5300
Wire Notes Line
	1000 5300 3250 5300
Wire Notes Line
	3250 5300 3250 3750
Wire Notes Line
	3250 3750 1000 3750
Text Notes 1050 3850 0    50   ~ 0
Accelerometer
$Comp
L power:GND #PWR0111
U 1 1 63AB3041
P 9700 5650
F 0 "#PWR0111" H 9700 5400 50  0001 C CNN
F 1 "GND" H 9705 5477 50  0000 C CNN
F 2 "" H 9700 5650 50  0001 C CNN
F 3 "" H 9700 5650 50  0001 C CNN
	1    9700 5650
	1    0    0    -1  
$EndComp
Wire Wire Line
	9550 5400 9550 5500
Wire Wire Line
	9550 5500 9650 5500
Wire Wire Line
	9850 5500 9850 5400
Wire Wire Line
	9750 5400 9750 5500
Connection ~ 9750 5500
Wire Wire Line
	9750 5500 9850 5500
Wire Wire Line
	9650 5400 9650 5500
Connection ~ 9650 5500
Wire Wire Line
	9650 5500 9700 5500
Wire Wire Line
	9700 5650 9700 5500
Connection ~ 9700 5500
Wire Wire Line
	9700 5500 9750 5500
Wire Wire Line
	9550 4400 9550 4450
Wire Wire Line
	9650 4400 9650 4550
Wire Wire Line
	9750 4400 9750 4650
Text GLabel 9200 4450 0    50   Input ~ 0
S1
Text GLabel 9200 4550 0    50   Input ~ 0
S2
Text GLabel 9200 4650 0    50   Input ~ 0
S3
Text GLabel 9200 4750 0    50   Input ~ 0
S4
Wire Wire Line
	9200 4450 9550 4450
Wire Wire Line
	9200 4550 9650 4550
Wire Wire Line
	9200 4650 9750 4650
Wire Wire Line
	9550 4450 9550 4800
Connection ~ 9550 4450
Wire Wire Line
	9650 4550 9650 4800
Connection ~ 9650 4550
Wire Wire Line
	9750 4650 9750 4800
Connection ~ 9750 4650
Wire Wire Line
	9850 4400 9850 4750
Wire Wire Line
	9200 4750 9850 4750
Connection ~ 9850 4750
Wire Wire Line
	9850 4750 9850 4800
$Comp
L power:+3.3V #PWR0112
U 1 1 63ADC44C
P 9550 3850
F 0 "#PWR0112" H 9550 3700 50  0001 C CNN
F 1 "+3.3V" H 9565 4023 50  0000 C CNN
F 2 "" H 9550 3850 50  0001 C CNN
F 3 "" H 9550 3850 50  0001 C CNN
	1    9550 3850
	1    0    0    -1  
$EndComp
Wire Notes Line
	8450 3600 8450 6000
Wire Notes Line
	8450 6000 10700 6000
Wire Notes Line
	10700 6000 10700 3600
Wire Notes Line
	10700 3600 8450 3600
Text Notes 8500 3700 0    50   ~ 0
Kart and Wifi selector
$Comp
L Connector:Conn_01x03_Female J1
U 1 1 63AE638B
P 4750 5750
F 0 "J1" V 4596 5898 50  0000 L CNN
F 1 "Palette_Gauche" H 4687 5898 50  0000 L CNN
F 2 "Connector_JST:JST_PH_B3B-PH-K_1x03_P2.00mm_Vertical" H 4750 5750 50  0001 C CNN
F 3 "~" H 4750 5750 50  0001 C CNN
	1    4750 5750
	0    1    1    0   
$EndComp
$Comp
L Connector:Conn_01x03_Female J3
U 1 1 63AE6CE8
P 5300 5750
F 0 "J3" V 5146 5898 50  0000 L CNN
F 1 "Pot_Gauche" H 5237 5898 50  0000 L CNN
F 2 "Connector_JST:JST_PH_B3B-PH-K_1x03_P2.00mm_Vertical" H 5300 5750 50  0001 C CNN
F 3 "~" H 5300 5750 50  0001 C CNN
	1    5300 5750
	0    1    1    0   
$EndComp
$Comp
L Connector:Conn_01x03_Female J4
U 1 1 63AE7185
P 5850 5750
F 0 "J4" V 5696 5898 50  0000 L CNN
F 1 "Pot_droit" H 5787 5898 50  0000 L CNN
F 2 "Connector_JST:JST_PH_B3B-PH-K_1x03_P2.00mm_Vertical" H 5850 5750 50  0001 C CNN
F 3 "~" H 5850 5750 50  0001 C CNN
	1    5850 5750
	0    1    1    0   
$EndComp
$Comp
L Connector:Conn_01x03_Female J6
U 1 1 63AE75B0
P 6450 5750
F 0 "J6" V 6296 5898 50  0000 L CNN
F 1 "Palette_Droite" H 6387 5898 50  0000 L CNN
F 2 "Connector_JST:JST_PH_B3B-PH-K_1x03_P2.00mm_Vertical" H 6450 5750 50  0001 C CNN
F 3 "~" H 6450 5750 50  0001 C CNN
	1    6450 5750
	0    1    1    0   
$EndComp
$Comp
L power:GND #PWR0113
U 1 1 63AE7EBF
P 4350 5250
F 0 "#PWR0113" H 4350 5000 50  0001 C CNN
F 1 "GND" H 4355 5077 50  0000 C CNN
F 2 "" H 4350 5250 50  0001 C CNN
F 3 "" H 4350 5250 50  0001 C CNN
	1    4350 5250
	-1   0    0    1   
$EndComp
$Comp
L power:+3.3V #PWR0114
U 1 1 63AE8A8D
P 6850 5250
F 0 "#PWR0114" H 6850 5100 50  0001 C CNN
F 1 "+3.3V" H 6865 5423 50  0000 C CNN
F 2 "" H 6850 5250 50  0001 C CNN
F 3 "" H 6850 5250 50  0001 C CNN
	1    6850 5250
	1    0    0    -1  
$EndComp
Wire Wire Line
	4350 5250 4350 5450
Wire Wire Line
	4350 5450 4650 5450
Wire Wire Line
	6350 5450 6350 5550
Wire Wire Line
	5750 5550 5750 5450
Connection ~ 5750 5450
Wire Wire Line
	5750 5450 6350 5450
Wire Wire Line
	5200 5550 5200 5450
Connection ~ 5200 5450
Wire Wire Line
	5200 5450 5750 5450
Wire Wire Line
	4650 5550 4650 5450
Connection ~ 4650 5450
Wire Wire Line
	4650 5450 5200 5450
Wire Wire Line
	6850 5250 6850 5350
Wire Wire Line
	6850 5350 6550 5350
Wire Wire Line
	4850 5350 4850 5550
Wire Wire Line
	5400 5550 5400 5350
Connection ~ 5400 5350
Wire Wire Line
	5400 5350 4850 5350
Wire Wire Line
	5950 5550 5950 5350
Connection ~ 5950 5350
Wire Wire Line
	5950 5350 5400 5350
Wire Wire Line
	6550 5550 6550 5350
Connection ~ 6550 5350
Wire Wire Line
	6550 5350 5950 5350
Text GLabel 4750 5100 1    50   Input ~ 0
Pal_G
Text GLabel 5300 5100 1    50   Input ~ 0
Pot_G
Text GLabel 5850 5100 1    50   Input ~ 0
Pot_D
Text GLabel 6450 5100 1    50   Input ~ 0
Pal_D
Wire Wire Line
	4750 5100 4750 5550
Wire Wire Line
	5300 5100 5300 5550
Wire Wire Line
	5850 5100 5850 5550
Wire Wire Line
	6450 5100 6450 5550
$Comp
L Connector:Conn_01x02_Female J5
U 1 1 63B0B947
P 6300 4250
F 0 "J5" H 6328 4226 50  0000 L CNN
F 1 "BTN_Attack_D" H 6328 4135 50  0000 L CNN
F 2 "Connector_JST:JST_PH_B2B-PH-K_1x02_P2.00mm_Vertical" H 6300 4250 50  0001 C CNN
F 3 "~" H 6300 4250 50  0001 C CNN
	1    6300 4250
	1    0    0    1   
$EndComp
$Comp
L Connector:Conn_01x02_Female J2
U 1 1 63B0C141
P 4950 4250
F 0 "J2" H 4842 3925 50  0000 C CNN
F 1 "BTN_Attack_G" H 4842 4016 50  0000 C CNN
F 2 "Connector_JST:JST_PH_B2B-PH-K_1x02_P2.00mm_Vertical" H 4950 4250 50  0001 C CNN
F 3 "~" H 4950 4250 50  0001 C CNN
	1    4950 4250
	-1   0    0    1   
$EndComp
$Comp
L power:GND #PWR0115
U 1 1 63B0C8EA
P 5250 4400
F 0 "#PWR0115" H 5250 4150 50  0001 C CNN
F 1 "GND" H 5255 4227 50  0000 C CNN
F 2 "" H 5250 4400 50  0001 C CNN
F 3 "" H 5250 4400 50  0001 C CNN
	1    5250 4400
	1    0    0    -1  
$EndComp
$Comp
L power:GND #PWR0116
U 1 1 63B0CCBA
P 5900 4350
F 0 "#PWR0116" H 5900 4100 50  0001 C CNN
F 1 "GND" H 5905 4177 50  0000 C CNN
F 2 "" H 5900 4350 50  0001 C CNN
F 3 "" H 5900 4350 50  0001 C CNN
	1    5900 4350
	1    0    0    -1  
$EndComp
$Comp
L Device:R R6
U 1 1 63B0CF51
P 5700 3950
F 0 "R6" H 5770 3996 50  0000 L CNN
F 1 "R" H 5770 3905 50  0000 L CNN
F 2 "Resistor_SMD:R_1206_3216Metric_Pad1.30x1.75mm_HandSolder" V 5630 3950 50  0001 C CNN
F 3 "~" H 5700 3950 50  0001 C CNN
	1    5700 3950
	1    0    0    -1  
$EndComp
$Comp
L power:+3.3V #PWR0117
U 1 1 63B0E146
P 5700 3800
F 0 "#PWR0117" H 5700 3650 50  0001 C CNN
F 1 "+3.3V" H 5715 3973 50  0000 C CNN
F 2 "" H 5700 3800 50  0001 C CNN
F 3 "" H 5700 3800 50  0001 C CNN
	1    5700 3800
	1    0    0    -1  
$EndComp
Wire Wire Line
	5700 4150 5700 4100
Wire Wire Line
	5900 4250 5900 4350
Wire Wire Line
	5150 4250 5250 4250
Wire Wire Line
	5250 4250 5250 4400
Wire Notes Line
	3850 3500 3850 6400
Wire Notes Line
	3850 6400 7600 6400
Wire Notes Line
	7600 6400 7600 3500
Wire Notes Line
	7600 3500 3850 3500
Text Notes 3950 3650 0    50   ~ 0
Buttons and joysticks
$Comp
L Device:C C1
U 1 1 63A9EB5E
P 2450 2800
F 0 "C1" V 2198 2800 50  0000 C CNN
F 1 "100nF" V 2289 2800 50  0000 C CNN
F 2 "Capacitor_SMD:C_1206_3216Metric_Pad1.33x1.80mm_HandSolder" H 2488 2650 50  0001 C CNN
F 3 "~" H 2450 2800 50  0001 C CNN
	1    2450 2800
	0    1    1    0   
$EndComp
$Comp
L power:+3.3V #PWR0118
U 1 1 63A9EF8F
P 2300 2800
F 0 "#PWR0118" H 2300 2650 50  0001 C CNN
F 1 "+3.3V" H 2315 2973 50  0000 C CNN
F 2 "" H 2300 2800 50  0001 C CNN
F 3 "" H 2300 2800 50  0001 C CNN
	1    2300 2800
	0    -1   -1   0   
$EndComp
$Comp
L power:GND #PWR0119
U 1 1 63A9F595
P 2600 2800
F 0 "#PWR0119" H 2600 2550 50  0001 C CNN
F 1 "GND" V 2605 2672 50  0000 R CNN
F 2 "" H 2600 2800 50  0001 C CNN
F 3 "" H 2600 2800 50  0001 C CNN
	1    2600 2800
	0    -1   -1   0   
$EndComp
$Comp
L Device:R R5
U 1 1 63A9FABF
P 2650 2250
F 0 "R5" V 2600 2350 50  0000 L CNN
F 1 "R" V 2650 2150 50  0000 L CNN
F 2 "Resistor_SMD:R_1206_3216Metric_Pad1.30x1.75mm_HandSolder" V 2580 2250 50  0001 C CNN
F 3 "~" H 2650 2250 50  0001 C CNN
	1    2650 2250
	0    1    1    0   
$EndComp
$Comp
L Device:R R4
U 1 1 63AA0305
P 2650 2150
F 0 "R4" V 2600 2250 50  0000 L CNN
F 1 "R" V 2650 2050 50  0000 L CNN
F 2 "Resistor_SMD:R_1206_3216Metric_Pad1.30x1.75mm_HandSolder" V 2580 2150 50  0001 C CNN
F 3 "~" H 2650 2150 50  0001 C CNN
	1    2650 2150
	0    1    1    0   
$EndComp
$Comp
L Device:R R3
U 1 1 63AA0528
P 2650 2050
F 0 "R3" V 2600 2150 50  0000 L CNN
F 1 "R" V 2650 1950 50  0000 L CNN
F 2 "Resistor_SMD:R_1206_3216Metric_Pad1.30x1.75mm_HandSolder" V 2580 2050 50  0001 C CNN
F 3 "~" H 2650 2050 50  0001 C CNN
	1    2650 2050
	0    1    1    0   
$EndComp
Wire Wire Line
	2450 2050 2500 2050
Wire Wire Line
	2450 2150 2500 2150
Wire Wire Line
	2450 2250 2500 2250
Wire Wire Line
	2800 2050 2900 2050
Wire Wire Line
	2800 2150 2900 2150
Wire Wire Line
	2800 2250 2900 2250
Wire Wire Line
	2450 1950 2900 1950
Text GLabel 6600 2500 2    50   Input ~ 0
Pal_G
Text GLabel 6600 2400 2    50   Input ~ 0
Pot_G
Text GLabel 6600 2300 2    50   Input ~ 0
Pot_D
Text GLabel 6600 2200 2    50   Input ~ 0
Pal_D
Wire Wire Line
	6200 2500 6225 2500
Connection ~ 6225 2500
Wire Wire Line
	6225 2500 6600 2500
Wire Wire Line
	6200 2400 6225 2400
Connection ~ 6225 2400
Wire Wire Line
	6225 2400 6600 2400
Wire Wire Line
	6200 2300 6225 2300
Connection ~ 6225 2300
Wire Wire Line
	6225 2300 6600 2300
Wire Wire Line
	6200 2200 6225 2200
Connection ~ 6225 2200
Wire Wire Line
	6225 2200 6600 2200
Wire Wire Line
	5150 4150 5700 4150
Connection ~ 5700 4150
Text GLabel 6150 3950 2    50   Input ~ 0
Attack
Wire Wire Line
	6150 3950 5900 3950
Wire Wire Line
	5900 3950 5900 4150
Wire Wire Line
	5900 4150 5700 4150
Text GLabel 6600 2100 2    50   Input ~ 0
Attack
Wire Wire Line
	6200 2100 6225 2100
Connection ~ 6225 2100
Wire Wire Line
	6225 2100 6600 2100
Text GLabel 5000 2400 0    50   Input ~ 0
SDA
Text GLabel 5000 2700 0    50   Input ~ 0
SCL
Wire Wire Line
	5000 2700 5200 2700
Wire Wire Line
	1600 4650 2050 4650
Wire Wire Line
	1600 4750 1800 4750
$Comp
L Device:R R1
U 1 1 63B0061B
P 1800 4950
F 0 "R1" H 1870 4996 50  0000 L CNN
F 1 "R" H 1870 4905 50  0000 L CNN
F 2 "Resistor_SMD:R_1206_3216Metric_Pad1.30x1.75mm_HandSolder" V 1730 4950 50  0001 C CNN
F 3 "~" H 1800 4950 50  0001 C CNN
	1    1800 4950
	1    0    0    -1  
$EndComp
$Comp
L Device:R R2
U 1 1 63B00B11
P 2050 4950
F 0 "R2" H 2120 4996 50  0000 L CNN
F 1 "R" H 2120 4905 50  0000 L CNN
F 2 "Resistor_SMD:R_1206_3216Metric_Pad1.30x1.75mm_HandSolder" V 1980 4950 50  0001 C CNN
F 3 "~" H 2050 4950 50  0001 C CNN
	1    2050 4950
	1    0    0    -1  
$EndComp
$Comp
L power:+3.3V #PWR0120
U 1 1 63B00D28
P 1550 5150
F 0 "#PWR0120" H 1550 5000 50  0001 C CNN
F 1 "+3.3V" H 1565 5323 50  0000 C CNN
F 2 "" H 1550 5150 50  0001 C CNN
F 3 "" H 1550 5150 50  0001 C CNN
	1    1550 5150
	0    -1   -1   0   
$EndComp
Wire Wire Line
	1550 5150 1800 5150
Wire Wire Line
	1800 5150 1800 5100
Wire Wire Line
	2050 5100 2050 5150
Wire Wire Line
	2050 5150 1800 5150
Connection ~ 1800 5150
Wire Wire Line
	1800 4750 1800 4800
Connection ~ 1800 4750
Wire Wire Line
	1800 4750 2150 4750
Wire Wire Line
	2050 4800 2050 4650
Connection ~ 2050 4650
Wire Wire Line
	2050 4650 2150 4650
Text GLabel 6600 2000 2    50   Input ~ 0
Motor
Wire Wire Line
	6200 2000 6225 2000
Connection ~ 6225 2000
Wire Wire Line
	6225 2000 6600 2000
Text GLabel 6600 1900 2    50   Input ~ 0
S1
Text GLabel 6600 1800 2    50   Input ~ 0
S2
Text GLabel 6600 1700 2    50   Input ~ 0
S3
Text GLabel 6600 1600 2    50   Input ~ 0
S4
Wire Wire Line
	6200 1600 6225 1600
Connection ~ 6225 1600
Wire Wire Line
	6225 1600 6600 1600
Wire Wire Line
	6200 1700 6225 1700
Connection ~ 6225 1700
Wire Wire Line
	6225 1700 6600 1700
Wire Wire Line
	6200 1800 6225 1800
Connection ~ 6225 1800
Wire Wire Line
	6225 1800 6600 1800
Wire Wire Line
	6200 1900 6225 1900
Connection ~ 6225 1900
Wire Wire Line
	6225 1900 6600 1900
Text GLabel 2750 1550 2    50   Input ~ 0
TOUCH_CS
Text GLabel 5000 1700 0    50   Input ~ 0
TOUCH_CS
Wire Wire Line
	5200 1700 5000 1700
Wire Wire Line
	2450 1550 2750 1550
$Comp
L Mechanical:MountingHole H1
U 1 1 63B51098
P 1500 5850
F 0 "H1" H 1600 5896 50  0000 L CNN
F 1 "MountingHole" H 1600 5805 50  0000 L CNN
F 2 "MountingHole:MountingHole_3.2mm_M3" H 1500 5850 50  0001 C CNN
F 3 "~" H 1500 5850 50  0001 C CNN
	1    1500 5850
	1    0    0    -1  
$EndComp
$Comp
L Mechanical:MountingHole H3
U 1 1 63B512FE
P 2350 5850
F 0 "H3" H 2450 5896 50  0000 L CNN
F 1 "MountingHole" H 2450 5805 50  0000 L CNN
F 2 "MountingHole:MountingHole_3.2mm_M3" H 2350 5850 50  0001 C CNN
F 3 "~" H 2350 5850 50  0001 C CNN
	1    2350 5850
	1    0    0    -1  
$EndComp
$Comp
L Mechanical:MountingHole H2
U 1 1 63B51624
P 1500 6250
F 0 "H2" H 1600 6296 50  0000 L CNN
F 1 "MountingHole" H 1600 6205 50  0000 L CNN
F 2 "MountingHole:MountingHole_3.2mm_M3" H 1500 6250 50  0001 C CNN
F 3 "~" H 1500 6250 50  0001 C CNN
	1    1500 6250
	1    0    0    -1  
$EndComp
$Comp
L Mechanical:MountingHole H4
U 1 1 63B518AA
P 2350 6250
F 0 "H4" H 2450 6296 50  0000 L CNN
F 1 "MountingHole" H 2450 6205 50  0000 L CNN
F 2 "MountingHole:MountingHole_3.2mm_M3" H 2350 6250 50  0001 C CNN
F 3 "~" H 2350 6250 50  0001 C CNN
	1    2350 6250
	1    0    0    -1  
$EndComp
$Comp
L Device:R_Network04 RN1
U 1 1 63B11F0F
P 9750 4200
F 0 "RN1" H 9938 4246 50  0000 L CNN
F 1 "R_Network04" H 9938 4155 50  0000 L CNN
F 2 "Resistor_THT:R_Array_SIP5" V 10025 4200 50  0001 C CNN
F 3 "http://www.vishay.com/docs/31509/csc.pdf" H 9750 4200 50  0001 C CNN
	1    9750 4200
	1    0    0    -1  
$EndComp
Wire Wire Line
	9550 4000 9550 3850
Text GLabel 2750 1450 2    50   Input ~ 0
INT
Wire Wire Line
	2450 1450 2750 1450
Text GLabel 6600 2700 2    50   Input ~ 0
INT
Wire Wire Line
	6200 2700 6225 2700
Connection ~ 6225 2700
Wire Wire Line
	6225 2700 6600 2700
Wire Wire Line
	5900 4250 6100 4250
Wire Wire Line
	6100 4150 5900 4150
Connection ~ 5900 4150
$Comp
L Mechanical:MountingHole H5
U 1 1 63B71F33
P 1500 6650
F 0 "H5" H 1600 6696 50  0000 L CNN
F 1 "MountingHole" H 1600 6605 50  0000 L CNN
F 2 "MountingHole:MountingHole_3.2mm_M3" H 1500 6650 50  0001 C CNN
F 3 "~" H 1500 6650 50  0001 C CNN
	1    1500 6650
	1    0    0    -1  
$EndComp
$Comp
L Mechanical:MountingHole H6
U 1 1 63B72002
P 2350 6650
F 0 "H6" H 2450 6696 50  0000 L CNN
F 1 "MountingHole" H 2450 6605 50  0000 L CNN
F 2 "MountingHole:MountingHole_3.2mm_M3" H 2350 6650 50  0001 C CNN
F 3 "~" H 2350 6650 50  0001 C CNN
	1    2350 6650
	1    0    0    -1  
$EndComp
$Comp
L Volant-rescue:Motor-Volant-cache U4
U 1 1 63B32D93
P 10100 1700
F 0 "U4" H 10117 2025 50  0000 C CNN
F 1 "Motor" H 10117 1934 50  0000 C CNN
F 2 "Volant:Vibreur" H 10300 2150 50  0001 C CNN
F 3 "" H 10300 2150 50  0001 C CNN
	1    10100 1700
	1    0    0    -1  
$EndComp
Wire Wire Line
	9400 2000 9400 1800
Wire Wire Line
	9400 1800 9600 1800
$Comp
L Device:Q_NPN_EBC Q1
U 1 1 63B7DEDB
P 8700 2450
F 0 "Q1" H 8891 2496 50  0000 L CNN
F 1 "Q_NPN_EBC" H 8891 2405 50  0000 L CNN
F 2 "Package_TO_SOT_THT:TO-92L_Inline_Wide" H 8900 2550 50  0001 C CNN
F 3 "~" H 8700 2450 50  0001 C CNN
	1    8700 2450
	1    0    0    -1  
$EndComp
$EndSCHEMATC
