M48
; DRILL file {KiCad (5.1.9)-1} date 01/05/23 00:48:07
; FORMAT={-:-/ absolute / metric / decimal}
; #@! TF.CreationDate,2023-01-05T00:48:07+01:00
; #@! TF.GenerationSoftware,Kicad,Pcbnew,(5.1.9)-1
; #@! TF.FileFunction,Plated,1,2,PTH
FMAT,2
METRIC
T1C0.400
T2C0.750
T3C0.762
T4C0.800
T5C0.900
%
G90
G05
T1
X-36.26Y19.91
X-35.36Y16.96
X-34.04Y-19.53
X-25.09Y-0.35
X-19.26Y-9.01
X-18.21Y23.34
X-17.35Y14.04
X-16.9Y11.9
X-16.37Y-23.14
X-11.61Y-17.38
X-9.62Y12.07
X-7.01Y-9.01
X-6.95Y7.0
X-2.5Y14.4
X0.01Y-23.39
X3.1Y14.4
X10.77Y27.62
X12.27Y28.15
X23.0Y7.59
X34.25Y-19.1
X37.65Y-0.5
X38.69Y18.96
T2
X-47.0Y0.0
X-47.0Y-2.0
X-25.0Y-36.0
X-25.0Y-38.0
X-25.0Y-40.0
X-9.0Y-60.0
X-7.0Y-60.0
X-5.0Y-60.0
X5.0Y-60.0
X7.0Y-60.0
X9.0Y-60.0
X25.0Y-36.0
X25.0Y-38.0
X25.0Y-40.0
X46.98Y-3.89
X46.98Y-5.89
T3
X-24.765Y21.2
X-24.765Y-4.2
X-22.225Y21.2
X-22.225Y-4.2
X-19.685Y21.2
X-19.685Y-4.2
X-17.145Y21.2
X-17.145Y-4.2
X-14.605Y21.2
X-14.605Y-4.2
X-12.065Y21.2
X-12.065Y-4.2
X-9.525Y21.2
X-9.525Y-4.2
X-6.985Y21.2
X-6.985Y-4.2
X-4.445Y21.2
X-4.445Y-4.2
X-1.905Y21.2
X-1.905Y-4.2
X0.635Y21.2
X0.635Y-4.2
X3.175Y21.2
X3.175Y-4.2
X5.715Y21.2
X5.715Y-4.2
X8.255Y21.2
X8.255Y-4.2
X10.795Y21.2
X10.795Y-4.2
X21.05Y-10.4
X21.05Y-12.94
X21.05Y-15.48
X21.05Y-18.02
X21.05Y-20.56
X21.05Y-23.1
X21.05Y-25.64
X21.05Y-28.18
X31.57Y-24.98
X34.11Y-24.98
T4
X-38.1Y13.97
X-38.1Y11.43
X-38.1Y8.89
X-38.1Y6.35
X-38.1Y3.81
X-38.1Y1.27
X-38.1Y-1.27
X-38.1Y-3.81
X-38.1Y-6.35
X-38.1Y-8.89
X-38.1Y-11.43
X-38.1Y-13.97
X-12.93Y-34.85
X-10.54Y-39.68
X-10.54Y-47.3
X-10.39Y-34.85
X-8.0Y-39.68
X-8.0Y-47.3
X-7.85Y-34.85
X-5.46Y-39.68
X-5.46Y-47.3
X-5.31Y-34.85
X-2.92Y-39.68
X-2.92Y-47.3
X-2.77Y-34.85
X39.69Y-26.92
X42.23Y-26.92
X44.77Y-26.92
T5
X26.68Y-20.16
X26.68Y-27.78
T0
M30
