EESchema Schematic File Version 4
EELAYER 30 0
EELAYER END
$Descr A4 11693 8268
encoding utf-8
Sheet 1 1
Title ""
Date ""
Rev ""
Comp ""
Comment1 ""
Comment2 ""
Comment3 ""
Comment4 ""
$EndDescr
$Comp
L M5Stack:M-BUS U2
U 1 1 60C44E2A
P 3700 2300
F 0 "U2" H 3700 3265 50  0000 C CNN
F 1 "M-BUS" H 3700 3174 50  0000 C CNN
F 2 "M5Stack:M5Core2" H 3950 2200 50  0001 C CNN
F 3 "" H 3950 2200 50  0001 C CNN
	1    3700 2300
	1    0    0    -1  
$EndComp
$Comp
L Connector_Generic:Conn_02x04_Odd_Even J1
U 1 1 60C473D8
P 8300 1700
F 0 "J1" H 8350 2017 50  0000 C CNN
F 1 "Conn_02x04_Odd_Even" H 8350 1926 50  0000 C CNN
F 2 "schema_kart:nRF24L01" H 8300 1700 50  0001 C CNN
F 3 "~" H 8300 1700 50  0001 C CNN
	1    8300 1700
	1    0    0    -1  
$EndComp
$Comp
L power:+3V3 #PWR0101
U 1 1 60C480ED
P 8950 1600
F 0 "#PWR0101" H 8950 1450 50  0001 C CNN
F 1 "+3V3" V 8965 1728 50  0000 L CNN
F 2 "" H 8950 1600 50  0001 C CNN
F 3 "" H 8950 1600 50  0001 C CNN
	1    8950 1600
	0    1    1    0   
$EndComp
$Comp
L power:GND #PWR0102
U 1 1 60C48A00
P 7700 1600
F 0 "#PWR0102" H 7700 1350 50  0001 C CNN
F 1 "GND" V 7705 1472 50  0000 R CNN
F 2 "" H 7700 1600 50  0001 C CNN
F 3 "" H 7700 1600 50  0001 C CNN
	1    7700 1600
	0    1    1    0   
$EndComp
Text GLabel 7850 1700 0    50   Input ~ 0
CE
Text GLabel 7850 1800 0    50   Input ~ 0
SCK
Text GLabel 7850 1900 0    50   Input ~ 0
MISO
Text GLabel 8850 1700 2    50   Input ~ 0
CNS
Text GLabel 8850 1800 2    50   Input ~ 0
MOSI
$Comp
L power:GND #PWR0103
U 1 1 60C49A61
P 4700 1650
F 0 "#PWR0103" H 4700 1400 50  0001 C CNN
F 1 "GND" V 4705 1522 50  0000 R CNN
F 2 "" H 4700 1650 50  0001 C CNN
F 3 "" H 4700 1650 50  0001 C CNN
	1    4700 1650
	0    -1   -1   0   
$EndComp
Wire Wire Line
	4700 1650 4500 1650
Wire Wire Line
	4500 1650 4500 1600
Wire Wire Line
	4500 1600 4350 1600
Wire Wire Line
	4350 1700 4500 1700
Wire Wire Line
	4500 1700 4500 1650
Connection ~ 4500 1650
Wire Wire Line
	4350 1800 4500 1800
Wire Wire Line
	4500 1800 4500 1700
Connection ~ 4500 1700
Text GLabel 4700 1900 2    50   Input ~ 0
MOSI
Text GLabel 4700 2000 2    50   Input ~ 0
MISO
Text GLabel 4700 2100 2    50   Input ~ 0
SCK
$Comp
L power:+3V3 #PWR0104
U 1 1 60C4AA02
P 2700 2100
F 0 "#PWR0104" H 2700 1950 50  0001 C CNN
F 1 "+3V3" V 2715 2228 50  0000 L CNN
F 2 "" H 2700 2100 50  0001 C CNN
F 3 "" H 2700 2100 50  0001 C CNN
	1    2700 2100
	0    -1   -1   0   
$EndComp
Wire Wire Line
	2700 2100 3050 2100
Wire Wire Line
	4700 1900 4350 1900
Wire Wire Line
	4700 2000 4350 2000
Wire Wire Line
	4700 2100 4350 2100
$Comp
L SparkFun-Electromechanical:JOYSTICKPTH U1
U 1 1 60C283DA
P 3300 5300
F 0 "U1" V 3146 5828 50  0000 L CNN
F 1 "JOYSTICKPTH" V 3237 5828 50  0000 L CNN
F 2 "SparkFun-Electromechanical:JOYSTICK" H 3330 5450 20  0001 C CNN
F 3 "" H 3300 5300 50  0001 C CNN
	1    3300 5300
	0    1    1    0   
$EndComp
$Comp
L SparkFun-Electromechanical:JOYSTICKPTH U3
U 1 1 60C28FE9
P 1800 5300
F 0 "U3" V 1646 5828 50  0000 L CNN
F 1 "JOYSTICKPTH" V 1737 5828 50  0000 L CNN
F 2 "SparkFun-Electromechanical:JOYSTICK" H 1830 5450 20  0001 C CNN
F 3 "" H 1800 5300 50  0001 C CNN
	1    1800 5300
	0    1    1    0   
$EndComp
$Comp
L power:+3V3 #PWR0105
U 1 1 60C2A11D
P 3100 4700
F 0 "#PWR0105" H 3100 4550 50  0001 C CNN
F 1 "+3V3" V 3115 4828 50  0000 L CNN
F 2 "" H 3100 4700 50  0001 C CNN
F 3 "" H 3100 4700 50  0001 C CNN
	1    3100 4700
	1    0    0    -1  
$EndComp
$Comp
L power:+3V3 #PWR0106
U 1 1 60C2AB08
P 3500 4700
F 0 "#PWR0106" H 3500 4550 50  0001 C CNN
F 1 "+3V3" V 3515 4828 50  0000 L CNN
F 2 "" H 3500 4700 50  0001 C CNN
F 3 "" H 3500 4700 50  0001 C CNN
	1    3500 4700
	1    0    0    -1  
$EndComp
$Comp
L power:+3V3 #PWR0107
U 1 1 60C2AD71
P 1600 4750
F 0 "#PWR0107" H 1600 4600 50  0001 C CNN
F 1 "+3V3" V 1615 4878 50  0000 L CNN
F 2 "" H 1600 4750 50  0001 C CNN
F 3 "" H 1600 4750 50  0001 C CNN
	1    1600 4750
	1    0    0    -1  
$EndComp
$Comp
L power:+3V3 #PWR0108
U 1 1 60C2B742
P 2000 4750
F 0 "#PWR0108" H 2000 4600 50  0001 C CNN
F 1 "+3V3" V 2015 4878 50  0000 L CNN
F 2 "" H 2000 4750 50  0001 C CNN
F 3 "" H 2000 4750 50  0001 C CNN
	1    2000 4750
	1    0    0    -1  
$EndComp
$Comp
L power:GND #PWR0109
U 1 1 60C2B990
P 1800 4750
F 0 "#PWR0109" H 1800 4500 50  0001 C CNN
F 1 "GND" V 1805 4622 50  0000 R CNN
F 2 "" H 1800 4750 50  0001 C CNN
F 3 "" H 1800 4750 50  0001 C CNN
	1    1800 4750
	-1   0    0    1   
$EndComp
$Comp
L power:GND #PWR0110
U 1 1 60C2C235
P 2200 4750
F 0 "#PWR0110" H 2200 4500 50  0001 C CNN
F 1 "GND" V 2205 4622 50  0000 R CNN
F 2 "" H 2200 4750 50  0001 C CNN
F 3 "" H 2200 4750 50  0001 C CNN
	1    2200 4750
	-1   0    0    1   
$EndComp
$Comp
L power:GND #PWR0111
U 1 1 60C2C48C
P 3700 4700
F 0 "#PWR0111" H 3700 4450 50  0001 C CNN
F 1 "GND" V 3705 4572 50  0000 R CNN
F 2 "" H 3700 4700 50  0001 C CNN
F 3 "" H 3700 4700 50  0001 C CNN
	1    3700 4700
	-1   0    0    1   
$EndComp
$Comp
L power:GND #PWR0112
U 1 1 60C2CCF1
P 3300 4700
F 0 "#PWR0112" H 3300 4450 50  0001 C CNN
F 1 "GND" V 3305 4572 50  0000 R CNN
F 2 "" H 3300 4700 50  0001 C CNN
F 3 "" H 3300 4700 50  0001 C CNN
	1    3300 4700
	-1   0    0    1   
$EndComp
Wire Wire Line
	3100 4900 3100 4700
Wire Wire Line
	3300 4900 3300 4700
Wire Wire Line
	3500 4900 3500 4700
Wire Wire Line
	3700 4900 3700 4700
Wire Wire Line
	1600 4900 1600 4750
Wire Wire Line
	1800 4900 1800 4750
Wire Wire Line
	2000 4900 2000 4750
Wire Wire Line
	2200 4900 2200 4750
$Comp
L Switch:SW_DIP_x04 SW1
U 1 1 60C2F3FF
P 8700 4150
F 0 "SW1" V 8746 3920 50  0000 R CNN
F 1 "SW_DIP_x04" V 8655 3920 50  0000 R CNN
F 2 "Button_Switch_THT:SW_DIP_SPSTx04_Slide_9.78x12.34mm_W7.62mm_P2.54mm" H 8700 4150 50  0001 C CNN
F 3 "~" H 8700 4150 50  0001 C CNN
	1    8700 4150
	0    -1   -1   0   
$EndComp
Wire Wire Line
	7700 1600 8100 1600
Wire Wire Line
	7850 1700 8100 1700
Wire Wire Line
	7850 1800 8100 1800
Wire Wire Line
	7850 1900 8100 1900
Wire Wire Line
	8950 1600 8600 1600
Wire Wire Line
	8850 1700 8600 1700
Wire Wire Line
	8850 1800 8600 1800
$Comp
L Interface_Expansion:PCF8574 U4
U 1 1 60C48319
P 7250 3400
F 0 "U4" H 7250 4281 50  0000 C CNN
F 1 "PCF8574" H 7250 4190 50  0000 C CNN
F 2 "Package_SO:SOIC-16W_7.5x10.3mm_P1.27mm" H 7250 3400 50  0001 C CNN
F 3 "http://www.nxp.com/documents/data_sheet/PCF8574_PCF8574A.pdf" H 7250 3400 50  0001 C CNN
F 4 "C7605" H 7250 3400 50  0001 C CNN "LCSC"
	1    7250 3400
	1    0    0    -1  
$EndComp
$Comp
L Device:R R1
U 1 1 60C4D9A5
P 8500 2700
F 0 "R1" H 8570 2746 50  0000 L CNN
F 1 "10K" H 8570 2655 50  0000 L CNN
F 2 "Resistor_SMD:R_1206_3216Metric_Pad1.30x1.75mm_HandSolder" V 8430 2700 50  0001 C CNN
F 3 "~" H 8500 2700 50  0001 C CNN
F 4 "C17902" H 8500 2700 50  0001 C CNN "LCSC"
	1    8500 2700
	1    0    0    -1  
$EndComp
$Comp
L Device:R R2
U 1 1 60C4E136
P 8600 2700
F 0 "R2" H 8670 2746 50  0000 L CNN
F 1 "10K" H 8670 2655 50  0000 L CNN
F 2 "Resistor_SMD:R_1206_3216Metric_Pad1.30x1.75mm_HandSolder" V 8530 2700 50  0001 C CNN
F 3 "~" H 8600 2700 50  0001 C CNN
F 4 "C17902" H 8600 2700 50  0001 C CNN "LCSC"
	1    8600 2700
	1    0    0    -1  
$EndComp
$Comp
L Device:R R3
U 1 1 60C4E7F5
P 8700 2700
F 0 "R3" H 8770 2746 50  0000 L CNN
F 1 "10K" H 8770 2655 50  0000 L CNN
F 2 "Resistor_SMD:R_1206_3216Metric_Pad1.30x1.75mm_HandSolder" V 8630 2700 50  0001 C CNN
F 3 "~" H 8700 2700 50  0001 C CNN
F 4 "C17902" H 8700 2700 50  0001 C CNN "LCSC"
	1    8700 2700
	1    0    0    -1  
$EndComp
$Comp
L Device:R R4
U 1 1 60C4FBB2
P 8800 2700
F 0 "R4" H 8870 2746 50  0000 L CNN
F 1 "10K" H 8870 2655 50  0000 L CNN
F 2 "Resistor_SMD:R_1206_3216Metric_Pad1.30x1.75mm_HandSolder" V 8730 2700 50  0001 C CNN
F 3 "~" H 8800 2700 50  0001 C CNN
F 4 "C17902" H 8800 2700 50  0001 C CNN "LCSC"
	1    8800 2700
	1    0    0    -1  
$EndComp
$Comp
L power:+3V3 #PWR0113
U 1 1 60C5079A
P 7250 2400
F 0 "#PWR0113" H 7250 2250 50  0001 C CNN
F 1 "+3V3" V 7265 2528 50  0000 L CNN
F 2 "" H 7250 2400 50  0001 C CNN
F 3 "" H 7250 2400 50  0001 C CNN
	1    7250 2400
	1    0    0    -1  
$EndComp
$Comp
L power:+3V3 #PWR0114
U 1 1 60C5107B
P 8650 2350
F 0 "#PWR0114" H 8650 2200 50  0001 C CNN
F 1 "+3V3" V 8665 2478 50  0000 L CNN
F 2 "" H 8650 2350 50  0001 C CNN
F 3 "" H 8650 2350 50  0001 C CNN
	1    8650 2350
	1    0    0    -1  
$EndComp
$Comp
L power:GND #PWR0115
U 1 1 60C5147D
P 7250 4350
F 0 "#PWR0115" H 7250 4100 50  0001 C CNN
F 1 "GND" V 7255 4222 50  0000 R CNN
F 2 "" H 7250 4350 50  0001 C CNN
F 3 "" H 7250 4350 50  0001 C CNN
	1    7250 4350
	1    0    0    -1  
$EndComp
$Comp
L power:GND #PWR0116
U 1 1 60C51902
P 8650 4700
F 0 "#PWR0116" H 8650 4450 50  0001 C CNN
F 1 "GND" V 8655 4572 50  0000 R CNN
F 2 "" H 8650 4700 50  0001 C CNN
F 3 "" H 8650 4700 50  0001 C CNN
	1    8650 4700
	1    0    0    -1  
$EndComp
Wire Wire Line
	7250 4350 7250 4100
Wire Wire Line
	8650 4700 8650 4550
Wire Wire Line
	8650 4550 8600 4550
Wire Wire Line
	8500 4550 8500 4450
Wire Wire Line
	8800 4450 8800 4550
Wire Wire Line
	8800 4550 8700 4550
Connection ~ 8650 4550
Wire Wire Line
	8700 4450 8700 4550
Connection ~ 8700 4550
Wire Wire Line
	8700 4550 8650 4550
Wire Wire Line
	8600 4450 8600 4550
Connection ~ 8600 4550
Wire Wire Line
	8600 4550 8500 4550
Wire Wire Line
	8800 2850 8800 3300
Wire Wire Line
	8700 2850 8700 3200
Wire Wire Line
	8600 2850 8600 3100
Wire Wire Line
	8500 2850 8500 3000
Wire Wire Line
	7750 3000 8500 3000
Connection ~ 8500 3000
Wire Wire Line
	8500 3000 8500 3850
Wire Wire Line
	7750 3100 8600 3100
Connection ~ 8600 3100
Wire Wire Line
	8600 3100 8600 3850
Wire Wire Line
	7750 3200 8700 3200
Connection ~ 8700 3200
Wire Wire Line
	8700 3200 8700 3850
Wire Wire Line
	7750 3300 8800 3300
Connection ~ 8800 3300
Wire Wire Line
	8800 3300 8800 3850
Wire Wire Line
	8650 2350 8650 2450
Wire Wire Line
	8650 2450 8600 2450
Wire Wire Line
	8500 2450 8500 2550
Wire Wire Line
	8800 2550 8800 2450
Wire Wire Line
	8800 2450 8700 2450
Connection ~ 8650 2450
Wire Wire Line
	8600 2550 8600 2450
Connection ~ 8600 2450
Wire Wire Line
	8600 2450 8500 2450
Wire Wire Line
	8700 2550 8700 2450
Connection ~ 8700 2450
Wire Wire Line
	8700 2450 8650 2450
Wire Wire Line
	7250 2400 7250 2700
Text GLabel 6200 3000 0    50   Input ~ 0
SCL
Text GLabel 6200 3100 0    50   Input ~ 0
SDA
Wire Wire Line
	6200 3000 6350 3000
Wire Wire Line
	6200 3100 6600 3100
Text GLabel 4750 2400 2    50   Input ~ 0
SDA
Text GLabel 2600 2400 0    50   Input ~ 0
SCL
Wire Wire Line
	2600 2400 3050 2400
Wire Wire Line
	4750 2400 4350 2400
$Comp
L power:GND #PWR0117
U 1 1 60C61841
P 6450 3400
F 0 "#PWR0117" H 6450 3150 50  0001 C CNN
F 1 "GND" V 6455 3272 50  0000 R CNN
F 2 "" H 6450 3400 50  0001 C CNN
F 3 "" H 6450 3400 50  0001 C CNN
	1    6450 3400
	0    1    1    0   
$EndComp
Wire Wire Line
	6750 3400 6600 3400
Wire Wire Line
	6750 3300 6600 3300
Wire Wire Line
	6600 3300 6600 3400
Connection ~ 6600 3400
Wire Wire Line
	6600 3400 6450 3400
Wire Wire Line
	6750 3500 6600 3500
Wire Wire Line
	6600 3500 6600 3400
$Comp
L Device:C C1
U 1 1 60C65901
P 7900 2550
F 0 "C1" H 8015 2596 50  0000 L CNN
F 1 "100nF" H 8015 2505 50  0000 L CNN
F 2 "Capacitor_SMD:C_1206_3216Metric_Pad1.33x1.80mm_HandSolder" H 7938 2400 50  0001 C CNN
F 3 "~" H 7900 2550 50  0001 C CNN
F 4 "C1945" H 7900 2550 50  0001 C CNN "LCSC"
	1    7900 2550
	1    0    0    -1  
$EndComp
$Comp
L power:+3V3 #PWR0118
U 1 1 60C65BBB
P 7900 2400
F 0 "#PWR0118" H 7900 2250 50  0001 C CNN
F 1 "+3V3" V 7915 2528 50  0000 L CNN
F 2 "" H 7900 2400 50  0001 C CNN
F 3 "" H 7900 2400 50  0001 C CNN
	1    7900 2400
	1    0    0    -1  
$EndComp
$Comp
L power:GND #PWR0119
U 1 1 60C65FBB
P 7900 2700
F 0 "#PWR0119" H 7900 2450 50  0001 C CNN
F 1 "GND" V 7905 2572 50  0000 R CNN
F 2 "" H 7900 2700 50  0001 C CNN
F 3 "" H 7900 2700 50  0001 C CNN
	1    7900 2700
	1    0    0    -1  
$EndComp
Text GLabel 4750 2600 2    50   Input ~ 0
CE
Wire Wire Line
	4750 2600 4350 2600
Text GLabel 2600 2600 0    50   Input ~ 0
CNS
Wire Wire Line
	2600 2600 3050 2600
Wire Wire Line
	1700 4250 2100 4250
Wire Wire Line
	2100 4250 2100 4900
Wire Wire Line
	3200 4900 3200 3350
Wire Wire Line
	3200 3350 1850 3350
$Comp
L Connector_Generic:Conn_01x02 J2
U 1 1 60C9E57E
P 6000 4900
F 0 "J2" H 6080 4892 50  0000 L CNN
F 1 "BTN_ATTACK" H 6080 4801 50  0000 L CNN
F 2 "Connector_JST:JST_PH_B2B-PH-K_1x02_P2.00mm_Vertical" H 6000 4900 50  0001 C CNN
F 3 "~" H 6000 4900 50  0001 C CNN
	1    6000 4900
	1    0    0    -1  
$EndComp
$Comp
L power:GND #PWR0120
U 1 1 60C9ED19
P 5650 5100
F 0 "#PWR0120" H 5650 4850 50  0001 C CNN
F 1 "GND" V 5655 4972 50  0000 R CNN
F 2 "" H 5650 5100 50  0001 C CNN
F 3 "" H 5650 5100 50  0001 C CNN
	1    5650 5100
	1    0    0    -1  
$EndComp
Wire Wire Line
	5800 5000 5650 5000
Wire Wire Line
	5650 5000 5650 5100
$Comp
L Device:R R5
U 1 1 60CA0F98
P 5600 4600
F 0 "R5" H 5670 4646 50  0000 L CNN
F 1 "10K" H 5670 4555 50  0000 L CNN
F 2 "Resistor_SMD:R_1206_3216Metric_Pad1.30x1.75mm_HandSolder" V 5530 4600 50  0001 C CNN
F 3 "~" H 5600 4600 50  0001 C CNN
F 4 "C17902" H 5600 4600 50  0001 C CNN "LCSC"
	1    5600 4600
	1    0    0    -1  
$EndComp
$Comp
L power:+3V3 #PWR0121
U 1 1 60CA1542
P 5600 4450
F 0 "#PWR0121" H 5600 4300 50  0001 C CNN
F 1 "+3V3" V 5615 4578 50  0000 L CNN
F 2 "" H 5600 4450 50  0001 C CNN
F 3 "" H 5600 4450 50  0001 C CNN
	1    5600 4450
	1    0    0    -1  
$EndComp
Wire Wire Line
	5800 4900 5600 4900
Wire Wire Line
	5600 4900 5600 4750
Text GLabel 4700 2300 2    50   Input ~ 0
EXT_BTN
Text GLabel 5350 4900 0    50   Input ~ 0
EXT_BTN
Wire Wire Line
	5350 4900 5600 4900
Connection ~ 5600 4900
Wire Wire Line
	4700 2300 4350 2300
Text GLabel 8200 3850 3    50   Input ~ 0
EXT_BTN
Wire Wire Line
	8200 3850 8200 3400
Wire Wire Line
	8200 3400 7750 3400
Wire Wire Line
	1850 1600 3050 1600
Wire Wire Line
	1850 1600 1850 3350
Wire Wire Line
	1700 4250 1700 1700
Wire Wire Line
	1700 1700 3050 1700
$Comp
L Connector_Generic:Conn_01x02 J3
U 1 1 60CF7F82
P 2550 3000
F 0 "J3" H 2630 2992 50  0000 L CNN
F 1 "BTN_ATTACK" H 2630 2901 50  0000 L CNN
F 2 "Connector_JST:JST_PH_B2B-PH-K_1x02_P2.00mm_Vertical" H 2550 3000 50  0001 C CNN
F 3 "~" H 2550 3000 50  0001 C CNN
	1    2550 3000
	-1   0    0    -1  
$EndComp
Wire Wire Line
	3050 3000 2750 3000
$Comp
L power:GND #PWR0122
U 1 1 60CFB2E8
P 2850 3150
F 0 "#PWR0122" H 2850 2900 50  0001 C CNN
F 1 "GND" V 2855 3022 50  0000 R CNN
F 2 "" H 2850 3150 50  0001 C CNN
F 3 "" H 2850 3150 50  0001 C CNN
	1    2850 3150
	1    0    0    -1  
$EndComp
Wire Wire Line
	2850 3150 2850 3100
Wire Wire Line
	2850 3100 2750 3100
$Comp
L Device:R R6
U 1 1 60D33D55
P 1300 4500
F 0 "R6" H 1370 4546 50  0000 L CNN
F 1 "10K" H 1370 4455 50  0000 L CNN
F 2 "Resistor_SMD:R_1206_3216Metric_Pad1.30x1.75mm_HandSolder" V 1230 4500 50  0001 C CNN
F 3 "~" H 1300 4500 50  0001 C CNN
F 4 "C17902" H 1300 4500 50  0001 C CNN "LCSC"
	1    1300 4500
	1    0    0    -1  
$EndComp
$Comp
L Device:R R7
U 1 1 60D34706
P 2550 4550
F 0 "R7" H 2620 4596 50  0000 L CNN
F 1 "10K" H 2620 4505 50  0000 L CNN
F 2 "Resistor_SMD:R_1206_3216Metric_Pad1.30x1.75mm_HandSolder" V 2480 4550 50  0001 C CNN
F 3 "~" H 2550 4550 50  0001 C CNN
F 4 "C17902" H 2550 4550 50  0001 C CNN "LCSC"
	1    2550 4550
	1    0    0    -1  
$EndComp
$Comp
L power:+3V3 #PWR0123
U 1 1 60D34D9A
P 1300 4350
F 0 "#PWR0123" H 1300 4200 50  0001 C CNN
F 1 "+3V3" V 1315 4478 50  0000 L CNN
F 2 "" H 1300 4350 50  0001 C CNN
F 3 "" H 1300 4350 50  0001 C CNN
	1    1300 4350
	1    0    0    -1  
$EndComp
$Comp
L power:+3V3 #PWR0124
U 1 1 60D35600
P 2550 4400
F 0 "#PWR0124" H 2550 4250 50  0001 C CNN
F 1 "+3V3" V 2565 4528 50  0000 L CNN
F 2 "" H 2550 4400 50  0001 C CNN
F 3 "" H 2550 4400 50  0001 C CNN
	1    2550 4400
	1    0    0    -1  
$EndComp
Wire Wire Line
	1300 4650 1300 4750
$Comp
L power:GND #PWR0125
U 1 1 60D3AF66
P 1050 4900
F 0 "#PWR0125" H 1050 4650 50  0001 C CNN
F 1 "GND" V 1055 4772 50  0000 R CNN
F 2 "" H 1050 4900 50  0001 C CNN
F 3 "" H 1050 4900 50  0001 C CNN
	1    1050 4900
	-1   0    0    1   
$EndComp
$Comp
L power:GND #PWR0126
U 1 1 60D3B785
P 2800 4900
F 0 "#PWR0126" H 2800 4650 50  0001 C CNN
F 1 "GND" V 2805 4772 50  0000 R CNN
F 2 "" H 2800 4900 50  0001 C CNN
F 3 "" H 2800 4900 50  0001 C CNN
	1    2800 4900
	-1   0    0    1   
$EndComp
Text GLabel 1100 4700 1    50   Input ~ 0
SW_GAUCHE
Wire Wire Line
	2550 4700 2550 4800
Text GLabel 2400 4700 1    50   Input ~ 0
SW_DROITE
Wire Wire Line
	1100 4700 1100 4750
Wire Wire Line
	1100 4750 1300 4750
Wire Wire Line
	2400 4700 2400 4800
Wire Wire Line
	2400 4800 2550 4800
Connection ~ 2550 4800
Wire Wire Line
	2550 4800 2550 4900
Text GLabel 8050 3850 3    50   Input ~ 0
SW_GAUCHE
Text GLabel 7900 3850 3    50   Input ~ 0
SW_DROITE
Wire Wire Line
	8050 3500 7750 3500
Wire Wire Line
	7900 3600 7750 3600
Wire Wire Line
	7900 3850 7900 3600
Wire Wire Line
	8050 3850 8050 3500
Wire Wire Line
	1300 4900 1300 4750
Connection ~ 1300 4750
$Comp
L Device:R R8
U 1 1 60D2B7E6
P 6350 2700
F 0 "R8" H 6420 2746 50  0000 L CNN
F 1 "10K" H 6420 2655 50  0000 L CNN
F 2 "Resistor_SMD:R_1206_3216Metric_Pad1.30x1.75mm_HandSolder" V 6280 2700 50  0001 C CNN
F 3 "~" H 6350 2700 50  0001 C CNN
F 4 "C17902" H 6350 2700 50  0001 C CNN "LCSC"
	1    6350 2700
	1    0    0    -1  
$EndComp
$Comp
L Device:R R9
U 1 1 60D2BDCE
P 6600 2700
F 0 "R9" H 6670 2746 50  0000 L CNN
F 1 "10K" H 6670 2655 50  0000 L CNN
F 2 "Resistor_SMD:R_1206_3216Metric_Pad1.30x1.75mm_HandSolder" V 6530 2700 50  0001 C CNN
F 3 "~" H 6600 2700 50  0001 C CNN
F 4 "C17902" H 6600 2700 50  0001 C CNN "LCSC"
	1    6600 2700
	1    0    0    -1  
$EndComp
Wire Wire Line
	6350 2850 6350 3000
Connection ~ 6350 3000
Wire Wire Line
	6350 3000 6750 3000
Wire Wire Line
	6600 2850 6600 3100
Connection ~ 6600 3100
Wire Wire Line
	6600 3100 6750 3100
$Comp
L power:+3V3 #PWR0127
U 1 1 60D327CC
P 6450 2400
F 0 "#PWR0127" H 6450 2250 50  0001 C CNN
F 1 "+3V3" V 6465 2528 50  0000 L CNN
F 2 "" H 6450 2400 50  0001 C CNN
F 3 "" H 6450 2400 50  0001 C CNN
	1    6450 2400
	1    0    0    -1  
$EndComp
Wire Wire Line
	6450 2400 6450 2500
Wire Wire Line
	6450 2500 6350 2500
Wire Wire Line
	6350 2500 6350 2550
Wire Wire Line
	6600 2550 6600 2500
Wire Wire Line
	6600 2500 6450 2500
Connection ~ 6450 2500
$EndSCHEMATC
