Comment,Designator,Footprint,LCSC
"18pF","C1,C2,C13,C14","Capacitor_SMD:C_1206_3216Metric_Pad1.33x1.80mm_HandSolder","C1644"
"100uF","C11","Capacitor_SMD:C_Elec_6.3x5.8","C97805"
"33nF","C3","Capacitor_SMD:C_1206_3216Metric_Pad1.33x1.80mm_HandSolder","C1864"
"22pF","C5","Capacitor_SMD:C_1206_3216Metric_Pad1.33x1.80mm_HandSolder","C313096"
"1uF","C7","Capacitor_SMD:C_1206_3216Metric_Pad1.33x1.80mm_HandSolder","C1848"
"100nF","C4,C6,C8,C9,C10,C12","Capacitor_SMD:C_1206_3216Metric_Pad1.33x1.80mm_HandSolder","C1945"
"PMEG2010AEH","D1,D2","Diode_SMD:D_SOD-123","C109212"
"CD1206-S01575","D3","Diode_SMD:D_1206_3216Metric_Pad1.42x1.75mm_HandSolder"," C75465"
"TXLED","D4","LED_SMD:LED_1206_3216Metric_Pad1.42x1.75mm_HandSolder"," C93094"
"RXLED","D5","LED_SMD:LED_1206_3216Metric_Pad1.42x1.75mm_HandSolder"," C93094"
"LED","D6","LED_SMD:LED_1206_3216Metric_Pad1.42x1.75mm_HandSolder","C375582"
"MF-MSMF020","F1","Fuse:Fuse_1812_4532Metric_Pad1.30x3.40mm_HandSolder","C35456"
"USB_B_Micro","J1","Connector_USB:USB_Micro-B_Molex-105017-0001","C404969"
"Servo","J11","Connector_PinSocket_2.54mm:PinSocket_1x03_P2.54mm_Vertical",""
"Feu_AR","J12","Connector_JST:JST_PH_B2B-PH-K_1x02_P2.00mm_Vertical",""
"Feu_AV","J13","Connector_JST:JST_PH_B2B-PH-K_1x02_P2.00mm_Vertical",""
"Prog","J2","Connector_PinHeader_2.54mm:PinHeader_1x02_P2.54mm_Vertical",""
"Conn_01x02","J3","Connector_PinHeader_2.54mm:PinHeader_1x02_P2.54mm_Vertical",""
"LED_IR","J4","Connector_JST:JST_PH_B2B-PH-K_1x02_P2.00mm_Vertical",""
"NRF24L01","J5","Connector_PinSocket_2.54mm:PinSocket_2x04_P2.54mm_Vertical",""
"Raspberry_Pi_2_3","J6","schema_kart:Raspberry_Pi_Zero",""
"TSOP_AV","J7","Connector_JST:JST_PH_B3B-PH-K_1x03_P2.00mm_Vertical",""
"TSOP_AR","J8","Connector_JST:JST_PH_B3B-PH-K_1x03_P2.00mm_Vertical",""
"Conn_01x02","J9,J10","Connector_JST:JST_PH_B2B-PH-K_1x02_P2.00mm_Vertical",""
"Jp1","JP1,JP2,JP3,JP4,JP5","Jumper:SolderJumper-2_P1.3mm_Open_Pad1.0x1.5mm",""
"BC847","Q1,Q4,Q5","Package_TO_SOT_SMD:SOT-23_Handsoldering","C397577"
"BS170FTA","Q2,Q3","Package_TO_SOT_SMD:SOT-23_Handsoldering"," C151050"
"4.7k","R1","Resistor_SMD:R_1206_3216Metric_Pad1.30x1.75mm_HandSolder","C17936"
"1K","R14,R21,R23","Resistor_SMD:R_1206_3216Metric_Pad1.30x1.75mm_HandSolder","C4410"
"100","R15,R22,R24","Resistor_SMD:R_1206_3216Metric_Pad1.30x1.75mm_HandSolder","C17901"
"10k","R2,R16,R17,R18,R19","Resistor_SMD:R_1206_3216Metric_Pad1.30x1.75mm_HandSolder","C17902"
"220","R20","Resistor_SMD:R_1206_3216Metric_Pad1.30x1.75mm_HandSolder","C17957"
"27R","R3,R4","Resistor_SMD:R_1206_3216Metric_Pad1.30x1.75mm_HandSolder","C25367"
"1k5","R5","Resistor_SMD:R_1206_3216Metric_Pad1.30x1.75mm_HandSolder","C26030"
"10K","R6","Resistor_SMD:R_1206_3216Metric_Pad1.30x1.75mm_HandSolder","C17902"
"470","R7","Resistor_SMD:R_1206_3216Metric_Pad1.30x1.75mm_HandSolder","C25383"
"1k","USB_EN1,R8,R9,R10,R11,R12","Resistor_SMD:R_1206_3216Metric_Pad1.30x1.75mm_HandSolder","C4410"
"SW_SPDT","SW1","Connector_JST:JST_EH_B3B-EH-A_1x03_P2.50mm_Vertical",""
"ATmega2560-16AU","U1","Package_QFP:TQFP-100_14x14mm_P0.5mm","C22460"
"FT232BM","U2","Package_QFP:LQFP-32_7x7mm_P0.8mm","C18968"
"LP2985-33DBVR","U3","Package_TO_SOT_SMD:SOT-23-5","C95414"
"74HC1G04GW","U4,U5","Package_TO_SOT_SMD:SOT-353_SC-70-5_Handsoldering","C150227"
"L293DD","U6","Package_SO:SOIC-20W_7.5x12.8mm_P1.27mm","C21610"
"6MHz","Y1","Crystal:Crystal_HC49-U_Vertical","C389702"
"16MHz","Y2","Crystal:Crystal_HC49-U_Vertical","C389709"