EESchema Schematic File Version 4
EELAYER 30 0
EELAYER END
$Descr A3 16535 11693
encoding utf-8
Sheet 1 1
Title ""
Date ""
Rev ""
Comp ""
Comment1 ""
Comment2 ""
Comment3 ""
Comment4 ""
$EndDescr
$Comp
L MCU_Microchip_ATmega:ATmega2560-16AU U1
U 1 1 6022E719
P 8300 5200
F 0 "U1" H 8300 2211 50  0000 C CNN
F 1 "ATmega2560-16AU" H 8300 2120 50  0000 C CNN
F 2 "Package_QFP:TQFP-100_14x14mm_P0.5mm" H 8300 5200 50  0001 C CIN
F 3 "http://ww1.microchip.com/downloads/en/DeviceDoc/Atmel-2549-8-bit-AVR-Microcontroller-ATmega640-1280-1281-2560-2561_datasheet.pdf" H 8300 5200 50  0001 C CNN
F 4 "C22460" H 8300 5200 50  0001 C CNN "LCSC"
	1    8300 5200
	1    0    0    -1  
$EndComp
$Comp
L Connector:USB_B_Micro J1
U 1 1 60234938
P 1200 3100
F 0 "J1" H 1257 3567 50  0000 C CNN
F 1 "USB_B_Micro" H 1257 3476 50  0000 C CNN
F 2 "Connector_USB:USB_Micro-B_Molex-105017-0001" H 1350 3050 50  0001 C CNN
F 3 "~" H 1350 3050 50  0001 C CNN
F 4 "C404969" H 1200 3100 50  0001 C CNN "LCSC"
	1    1200 3100
	1    0    0    -1  
$EndComp
$Comp
L power:+5V #PWR0102
U 1 1 6023A091
P 3000 1400
F 0 "#PWR0102" H 3000 1250 50  0001 C CNN
F 1 "+5V" V 3015 1528 50  0000 L CNN
F 2 "" H 3000 1400 50  0001 C CNN
F 3 "" H 3000 1400 50  0001 C CNN
	1    3000 1400
	0    1    1    0   
$EndComp
Text GLabel 7250 2600 0    50   Input ~ 0
RESET
Wire Wire Line
	7250 2600 7500 2600
Text GLabel 9300 6200 2    50   Input ~ 0
RX
Text GLabel 9300 6300 2    50   Input ~ 0
TX
$Comp
L power:+5V #PWR0103
U 1 1 60245C17
P 8300 2200
F 0 "#PWR0103" H 8300 2050 50  0001 C CNN
F 1 "+5V" H 8315 2373 50  0000 C CNN
F 2 "" H 8300 2200 50  0001 C CNN
F 3 "" H 8300 2200 50  0001 C CNN
	1    8300 2200
	1    0    0    -1  
$EndComp
$Comp
L power:GND #PWR0104
U 1 1 60247211
P 8300 8450
F 0 "#PWR0104" H 8300 8200 50  0001 C CNN
F 1 "GND" H 8305 8277 50  0000 C CNN
F 2 "" H 8300 8450 50  0001 C CNN
F 3 "" H 8300 8450 50  0001 C CNN
	1    8300 8450
	1    0    0    -1  
$EndComp
Wire Wire Line
	8300 8450 8300 8100
$Comp
L Connector_Generic:Conn_02x04_Odd_Even J5
U 1 1 602483F0
P 12600 1100
F 0 "J5" H 12650 1417 50  0000 C CNN
F 1 "NRF24L01" H 12650 1326 50  0000 C CNN
F 2 "Connector_PinSocket_2.54mm:PinSocket_2x04_P2.54mm_Vertical" H 12600 1100 50  0001 C CNN
F 3 "~" H 12600 1100 50  0001 C CNN
	1    12600 1100
	1    0    0    -1  
$EndComp
$Comp
L power:+3.3V #PWR0105
U 1 1 60249707
P 13150 1000
F 0 "#PWR0105" H 13150 850 50  0001 C CNN
F 1 "+3.3V" V 13165 1128 50  0000 L CNN
F 2 "" H 13150 1000 50  0001 C CNN
F 3 "" H 13150 1000 50  0001 C CNN
	1    13150 1000
	0    1    1    0   
$EndComp
$Comp
L power:GND #PWR0106
U 1 1 6024A6C0
P 12050 1000
F 0 "#PWR0106" H 12050 750 50  0001 C CNN
F 1 "GND" V 12055 872 50  0000 R CNN
F 2 "" H 12050 1000 50  0001 C CNN
F 3 "" H 12050 1000 50  0001 C CNN
	1    12050 1000
	0    1    1    0   
$EndComp
Text GLabel 12200 1100 0    50   Input ~ 0
CE
Text GLabel 12200 1200 0    50   Input ~ 0
SCK
Text GLabel 12200 1300 0    50   Input ~ 0
MISO
Text GLabel 13100 1100 2    50   Input ~ 0
CNS
Text GLabel 13100 1200 2    50   Input ~ 0
MOSI
Text GLabel 9500 3800 2    50   Input ~ 0
MISO
Wire Wire Line
	9500 3800 9100 3800
Text GLabel 9500 3700 2    50   Input ~ 0
MOSI
Wire Wire Line
	9500 3700 9100 3700
Text GLabel 9500 3600 2    50   Input ~ 0
SCK
Wire Wire Line
	9500 3600 9100 3600
Text GLabel 9500 3500 2    50   Input ~ 0
CE
Text GLabel 9500 3900 2    50   Input ~ 0
CNS
Wire Wire Line
	9500 3500 9100 3500
Wire Wire Line
	9500 3900 9100 3900
Text Label 9250 3500 0    50   ~ 0
53
Text Label 9250 3900 0    50   ~ 0
10
Text GLabel 7150 5300 0    50   Input ~ 0
RXD3
Text GLabel 7150 5400 0    50   Input ~ 0
TXD3
Wire Wire Line
	7150 5300 7500 5300
Wire Wire Line
	7150 5400 7500 5400
Text GLabel 7150 6200 0    50   Input ~ 0
RXD2
Text GLabel 7150 6300 0    50   Input ~ 0
TXD2
Wire Wire Line
	7150 6200 7500 6200
Wire Wire Line
	7150 6300 7500 6300
Text GLabel 9300 5600 2    50   Input ~ 0
TXD1
Text GLabel 9300 5500 2    50   Input ~ 0
RXD1
Text GLabel 9300 5300 2    50   Input ~ 0
SCL
Text GLabel 9300 5400 2    50   Input ~ 0
SDA
$Comp
L power:GND #PWR0107
U 1 1 602565D6
P 1100 3850
F 0 "#PWR0107" H 1100 3600 50  0001 C CNN
F 1 "GND" H 1105 3677 50  0000 C CNN
F 2 "" H 1100 3850 50  0001 C CNN
F 3 "" H 1100 3850 50  0001 C CNN
	1    1100 3850
	1    0    0    -1  
$EndComp
Wire Wire Line
	1100 3850 1100 3650
Wire Wire Line
	1200 3500 1200 3650
Wire Wire Line
	1200 3650 1100 3650
Connection ~ 1100 3650
Wire Wire Line
	1100 3650 1100 3500
Wire Wire Line
	1500 3300 1500 3650
Wire Wire Line
	1500 3650 1200 3650
Connection ~ 1200 3650
$Comp
L Interface_USB:FT232BM U2
U 1 1 60259043
P 3250 4800
F 0 "U2" H 3250 3411 50  0000 C CNN
F 1 "FT232BM" H 3250 3320 50  0000 C CNN
F 2 "Package_QFP:LQFP-32_7x7mm_P0.8mm" H 4250 3600 50  0001 C CNN
F 3 "https://www.ftdichip.com/Support/Documents/DataSheets/ICs/DS_FT232BM.pdf" H 3250 4800 50  0001 C CNN
F 4 "C18968" H 3250 4800 50  0001 C CNN "LCSC"
	1    3250 4800
	-1   0    0    -1  
$EndComp
Wire Wire Line
	3000 1400 2750 1400
$Comp
L Device:R R6
U 1 1 602510B3
P 6600 1800
F 0 "R6" H 6670 1846 50  0000 L CNN
F 1 "10K" H 6670 1755 50  0000 L CNN
F 2 "Resistor_SMD:R_1206_3216Metric_Pad1.30x1.75mm_HandSolder" V 6530 1800 50  0001 C CNN
F 3 "~" H 6600 1800 50  0001 C CNN
F 4 "C17902" H 6600 1800 50  0001 C CNN "LCSC"
	1    6600 1800
	1    0    0    -1  
$EndComp
$Comp
L Device:D D3
U 1 1 60251917
P 6900 1800
F 0 "D3" V 6854 1880 50  0000 L CNN
F 1 "CD1206-S01575" V 6945 1880 50  0000 L CNN
F 2 "Diode_SMD:D_1206_3216Metric_Pad1.42x1.75mm_HandSolder" H 6900 1800 50  0001 C CNN
F 3 "~" H 6900 1800 50  0001 C CNN
F 4 " C75465" V 6900 1800 50  0001 C CNN "LCSC"
	1    6900 1800
	0    1    1    0   
$EndComp
$Comp
L power:+5V #PWR0108
U 1 1 6025273C
P 6750 1500
F 0 "#PWR0108" H 6750 1350 50  0001 C CNN
F 1 "+5V" H 6765 1673 50  0000 C CNN
F 2 "" H 6750 1500 50  0001 C CNN
F 3 "" H 6750 1500 50  0001 C CNN
	1    6750 1500
	1    0    0    -1  
$EndComp
$Comp
L Device:C C5
U 1 1 60254503
P 6250 2200
F 0 "C5" H 6365 2246 50  0000 L CNN
F 1 "22pF" H 6365 2155 50  0000 L CNN
F 2 "Capacitor_SMD:C_1206_3216Metric_Pad1.33x1.80mm_HandSolder" H 6288 2050 50  0001 C CNN
F 3 "~" H 6250 2200 50  0001 C CNN
F 4 "C313096" H 6250 2200 50  0001 C CNN "LCSC"
	1    6250 2200
	1    0    0    -1  
$EndComp
$Comp
L power:GND #PWR0109
U 1 1 60254EB8
P 6250 2350
F 0 "#PWR0109" H 6250 2100 50  0001 C CNN
F 1 "GND" H 6255 2177 50  0000 C CNN
F 2 "" H 6250 2350 50  0001 C CNN
F 3 "" H 6250 2350 50  0001 C CNN
	1    6250 2350
	1    0    0    -1  
$EndComp
Wire Wire Line
	6750 1500 6750 1600
Wire Wire Line
	6750 1600 6600 1600
Wire Wire Line
	6600 1600 6600 1650
Wire Wire Line
	6900 1650 6900 1600
Wire Wire Line
	6900 1600 6750 1600
Connection ~ 6750 1600
Wire Wire Line
	6600 1950 6600 2000
Wire Wire Line
	6600 2000 6250 2000
Wire Wire Line
	6250 2000 6250 2050
Wire Wire Line
	6900 1950 6900 2000
Wire Wire Line
	6900 2000 6600 2000
Connection ~ 6600 2000
Text GLabel 6050 2000 0    50   Input ~ 0
RESET
Wire Wire Line
	6050 2000 6250 2000
Connection ~ 6250 2000
Wire Wire Line
	8300 2200 8300 2250
Wire Wire Line
	8400 2300 8400 2250
Wire Wire Line
	8400 2250 8300 2250
Connection ~ 8300 2250
Wire Wire Line
	8300 2250 8300 2300
$Comp
L Device:C C8
U 1 1 60277558
P 7900 1300
F 0 "C8" H 8015 1346 50  0000 L CNN
F 1 "100nF" H 8015 1255 50  0000 L CNN
F 2 "Capacitor_SMD:C_1206_3216Metric_Pad1.33x1.80mm_HandSolder" H 7938 1150 50  0001 C CNN
F 3 "~" H 7900 1300 50  0001 C CNN
F 4 "C1945" H 7900 1300 50  0001 C CNN "LCSC"
	1    7900 1300
	1    0    0    -1  
$EndComp
$Comp
L Device:C C9
U 1 1 60277D60
P 8350 1300
F 0 "C9" H 8465 1346 50  0000 L CNN
F 1 "100nF" H 8465 1255 50  0000 L CNN
F 2 "Capacitor_SMD:C_1206_3216Metric_Pad1.33x1.80mm_HandSolder" H 8388 1150 50  0001 C CNN
F 3 "~" H 8350 1300 50  0001 C CNN
F 4 "C1945" H 8350 1300 50  0001 C CNN "LCSC"
	1    8350 1300
	1    0    0    -1  
$EndComp
$Comp
L Device:C C10
U 1 1 60278892
P 8850 1300
F 0 "C10" H 8965 1346 50  0000 L CNN
F 1 "100nF" H 8965 1255 50  0000 L CNN
F 2 "Capacitor_SMD:C_1206_3216Metric_Pad1.33x1.80mm_HandSolder" H 8888 1150 50  0001 C CNN
F 3 "~" H 8850 1300 50  0001 C CNN
F 4 "C1945" H 8850 1300 50  0001 C CNN "LCSC"
	1    8850 1300
	1    0    0    -1  
$EndComp
$Comp
L power:GND #PWR0111
U 1 1 6027AC04
P 8350 1600
F 0 "#PWR0111" H 8350 1350 50  0001 C CNN
F 1 "GND" H 8355 1427 50  0000 C CNN
F 2 "" H 8350 1600 50  0001 C CNN
F 3 "" H 8350 1600 50  0001 C CNN
	1    8350 1600
	1    0    0    -1  
$EndComp
$Comp
L power:+5V #PWR0112
U 1 1 6027B1A0
P 8350 1000
F 0 "#PWR0112" H 8350 850 50  0001 C CNN
F 1 "+5V" H 8365 1173 50  0000 C CNN
F 2 "" H 8350 1000 50  0001 C CNN
F 3 "" H 8350 1000 50  0001 C CNN
	1    8350 1000
	1    0    0    -1  
$EndComp
Wire Wire Line
	7900 1150 7900 1050
Wire Wire Line
	7900 1050 8350 1050
Wire Wire Line
	8350 1050 8350 1000
Wire Wire Line
	8350 1150 8350 1050
Connection ~ 8350 1050
Wire Wire Line
	8850 1150 8850 1050
Wire Wire Line
	8850 1050 8350 1050
Wire Wire Line
	7900 1450 7900 1550
Wire Wire Line
	7900 1550 8350 1550
Wire Wire Line
	8350 1550 8350 1600
Wire Wire Line
	8350 1450 8350 1550
Connection ~ 8350 1550
Wire Wire Line
	8850 1450 8850 1550
Wire Wire Line
	8850 1550 8350 1550
$Comp
L Device:Fuse F1
U 1 1 60289152
P 1800 2900
F 0 "F1" V 1603 2900 50  0000 C CNN
F 1 "MF-MSMF020" V 1694 2900 50  0000 C CNN
F 2 "Fuse:Fuse_1812_4532Metric_Pad1.30x3.40mm_HandSolder" V 1730 2900 50  0001 C CNN
F 3 "~" H 1800 2900 50  0001 C CNN
F 4 "C35456" V 1800 2900 50  0001 C CNN "LCSC"
	1    1800 2900
	0    1    1    0   
$EndComp
Wire Wire Line
	1650 2900 1500 2900
$Comp
L Device:R R3
U 1 1 60290BF3
P 1800 3100
F 0 "R3" V 1593 3100 50  0000 C CNN
F 1 "27R" V 1684 3100 50  0000 C CNN
F 2 "Resistor_SMD:R_1206_3216Metric_Pad1.30x1.75mm_HandSolder" V 1730 3100 50  0001 C CNN
F 3 "~" H 1800 3100 50  0001 C CNN
F 4 "C25367" V 1800 3100 50  0001 C CNN "LCSC"
	1    1800 3100
	0    1    1    0   
$EndComp
$Comp
L Device:R R4
U 1 1 60291533
P 1800 3350
F 0 "R4" V 1593 3350 50  0000 C CNN
F 1 "27R" V 1684 3350 50  0000 C CNN
F 2 "Resistor_SMD:R_1206_3216Metric_Pad1.30x1.75mm_HandSolder" V 1730 3350 50  0001 C CNN
F 3 "~" H 1800 3350 50  0001 C CNN
F 4 "C25367" V 1800 3350 50  0001 C CNN "LCSC"
	1    1800 3350
	0    1    1    0   
$EndComp
Wire Wire Line
	1500 3100 1650 3100
Wire Wire Line
	1500 3200 1600 3200
Wire Wire Line
	1600 3200 1600 3350
Wire Wire Line
	1600 3350 1650 3350
Wire Wire Line
	2350 4200 2150 4200
Wire Wire Line
	2150 4200 2150 3100
Wire Wire Line
	2150 3100 1950 3100
Wire Wire Line
	1950 3350 1950 4000
Wire Wire Line
	1950 4000 2350 4000
$Comp
L Device:R R5
U 1 1 6029A9A0
P 1850 4350
F 0 "R5" H 1920 4396 50  0000 L CNN
F 1 "1k5" H 1920 4305 50  0000 L CNN
F 2 "Resistor_SMD:R_1206_3216Metric_Pad1.30x1.75mm_HandSolder" V 1780 4350 50  0001 C CNN
F 3 "~" H 1850 4350 50  0001 C CNN
F 4 "C26030" H 1850 4350 50  0001 C CNN "LCSC"
	1    1850 4350
	1    0    0    -1  
$EndComp
Wire Wire Line
	1850 4200 2150 4200
Connection ~ 2150 4200
Wire Wire Line
	2350 4500 1850 4500
$Comp
L power:VBUS #PWR0113
U 1 1 602A04CB
P 2250 2800
F 0 "#PWR0113" H 2250 2650 50  0001 C CNN
F 1 "VBUS" H 2265 2973 50  0000 C CNN
F 2 "" H 2250 2800 50  0001 C CNN
F 3 "" H 2250 2800 50  0001 C CNN
	1    2250 2800
	1    0    0    -1  
$EndComp
Wire Wire Line
	1950 2900 2250 2900
Wire Wire Line
	2250 2900 2250 2800
$Comp
L Device:R R1
U 1 1 602A4148
P 1250 4450
F 0 "R1" H 1320 4496 50  0000 L CNN
F 1 "4.7k" H 1320 4405 50  0000 L CNN
F 2 "Resistor_SMD:R_1206_3216Metric_Pad1.30x1.75mm_HandSolder" V 1180 4450 50  0001 C CNN
F 3 "~" H 1250 4450 50  0001 C CNN
F 4 "C17936" H 1250 4450 50  0001 C CNN "LCSC"
	1    1250 4450
	1    0    0    -1  
$EndComp
$Comp
L Device:R R2
U 1 1 602A4E60
P 1250 4900
F 0 "R2" H 1320 4946 50  0000 L CNN
F 1 "10k" H 1320 4855 50  0000 L CNN
F 2 "Resistor_SMD:R_1206_3216Metric_Pad1.30x1.75mm_HandSolder" V 1180 4900 50  0001 C CNN
F 3 "~" H 1250 4900 50  0001 C CNN
F 4 "C17902" H 1250 4900 50  0001 C CNN "LCSC"
	1    1250 4900
	1    0    0    -1  
$EndComp
Wire Wire Line
	2350 4700 1250 4700
Wire Wire Line
	1250 4700 1250 4750
Wire Wire Line
	1250 4600 1250 4700
Connection ~ 1250 4700
$Comp
L power:VBUS #PWR0114
U 1 1 602AB614
P 1250 4300
F 0 "#PWR0114" H 1250 4150 50  0001 C CNN
F 1 "VBUS" H 1265 4473 50  0000 C CNN
F 2 "" H 1250 4300 50  0001 C CNN
F 3 "" H 1250 4300 50  0001 C CNN
	1    1250 4300
	1    0    0    -1  
$EndComp
$Comp
L power:GND #PWR0115
U 1 1 602ABE18
P 1250 5050
F 0 "#PWR0115" H 1250 4800 50  0001 C CNN
F 1 "GND" H 1255 4877 50  0000 C CNN
F 2 "" H 1250 5050 50  0001 C CNN
F 3 "" H 1250 5050 50  0001 C CNN
	1    1250 5050
	1    0    0    -1  
$EndComp
$Comp
L Device:C C3
U 1 1 602AC619
P 2300 3500
F 0 "C3" H 2415 3546 50  0000 L CNN
F 1 "33nF" H 2415 3455 50  0000 L CNN
F 2 "Capacitor_SMD:C_1206_3216Metric_Pad1.33x1.80mm_HandSolder" H 2338 3350 50  0001 C CNN
F 3 "~" H 2300 3500 50  0001 C CNN
F 4 "C1864" H 2300 3500 50  0001 C CNN "LCSC"
	1    2300 3500
	1    0    0    -1  
$EndComp
$Comp
L power:GND #PWR0116
U 1 1 602ACD1D
P 2300 3200
F 0 "#PWR0116" H 2300 2950 50  0001 C CNN
F 1 "GND" H 2305 3027 50  0000 C CNN
F 2 "" H 2300 3200 50  0001 C CNN
F 3 "" H 2300 3200 50  0001 C CNN
	1    2300 3200
	-1   0    0    1   
$EndComp
Wire Wire Line
	2350 3800 2300 3800
Wire Wire Line
	2300 3800 2300 3650
$Comp
L power:+5V #PWR0117
U 1 1 602B860B
P 3850 3250
F 0 "#PWR0117" H 3850 3100 50  0001 C CNN
F 1 "+5V" H 3865 3423 50  0000 C CNN
F 2 "" H 3850 3250 50  0001 C CNN
F 3 "" H 3850 3250 50  0001 C CNN
	1    3850 3250
	1    0    0    -1  
$EndComp
$Comp
L Device:R R7
U 1 1 602B8DF6
P 3200 3350
F 0 "R7" V 2993 3350 50  0000 C CNN
F 1 "470" V 3084 3350 50  0000 C CNN
F 2 "Resistor_SMD:R_1206_3216Metric_Pad1.30x1.75mm_HandSolder" V 3130 3350 50  0001 C CNN
F 3 "~" H 3200 3350 50  0001 C CNN
F 4 "C25383" V 3200 3350 50  0001 C CNN "LCSC"
	1    3200 3350
	0    1    1    0   
$EndComp
Wire Wire Line
	3050 3500 3050 3400
Wire Wire Line
	3250 3500 3250 3450
Wire Wire Line
	3250 3450 3350 3450
Wire Wire Line
	3850 3450 3850 3250
Wire Wire Line
	3350 3500 3350 3450
Connection ~ 3350 3450
Wire Wire Line
	3350 3450 3450 3450
Wire Wire Line
	3550 3500 3550 3450
Connection ~ 3550 3450
Wire Wire Line
	3550 3450 3850 3450
Wire Wire Line
	3350 3350 3450 3350
Wire Wire Line
	3450 3350 3450 3450
Connection ~ 3450 3450
Wire Wire Line
	3450 3450 3550 3450
$Comp
L Device:C C4
U 1 1 602CD0F7
P 2800 3350
F 0 "C4" V 2548 3350 50  0000 C CNN
F 1 "100nF" V 2639 3350 50  0000 C CNN
F 2 "Capacitor_SMD:C_1206_3216Metric_Pad1.33x1.80mm_HandSolder" H 2838 3200 50  0001 C CNN
F 3 "~" H 2800 3350 50  0001 C CNN
F 4 "C1945" V 2800 3350 50  0001 C CNN "LCSC"
	1    2800 3350
	0    1    1    0   
$EndComp
Wire Wire Line
	2950 3350 2950 3400
Wire Wire Line
	2950 3400 3050 3400
Connection ~ 3050 3400
Wire Wire Line
	3050 3400 3050 3350
Wire Wire Line
	2650 3350 2450 3350
Wire Wire Line
	2450 3350 2450 3300
Wire Wire Line
	2450 3300 2300 3300
Wire Wire Line
	2300 3300 2300 3350
Wire Wire Line
	2300 3200 2300 3300
Connection ~ 2300 3300
$Comp
L Device:Crystal Y1
U 1 1 602DE5FA
P 2100 5050
F 0 "Y1" V 2054 5181 50  0000 L CNN
F 1 "6MHz" V 2145 5181 50  0000 L CNN
F 2 "Crystal:Crystal_HC49-U_Vertical" H 2100 5050 50  0001 C CNN
F 3 "~" H 2100 5050 50  0001 C CNN
F 4 "C389702" V 2100 5050 50  0001 C CNN "LCSC"
F 5 "1842263" V 2100 5050 50  0001 C CNN "Farnell"
	1    2100 5050
	0    1    1    0   
$EndComp
$Comp
L Device:C C1
U 1 1 602DF435
P 1850 4900
F 0 "C1" V 1598 4900 50  0000 C CNN
F 1 "18pF" V 1689 4900 50  0000 C CNN
F 2 "Capacitor_SMD:C_1206_3216Metric_Pad1.33x1.80mm_HandSolder" H 1888 4750 50  0001 C CNN
F 3 "~" H 1850 4900 50  0001 C CNN
F 4 "C1644" V 1850 4900 50  0001 C CNN "LCSC"
	1    1850 4900
	0    1    1    0   
$EndComp
$Comp
L Device:C C2
U 1 1 602E00E1
P 1850 5200
F 0 "C2" V 1598 5200 50  0000 C CNN
F 1 "18pF" V 1689 5200 50  0000 C CNN
F 2 "Capacitor_SMD:C_1206_3216Metric_Pad1.33x1.80mm_HandSolder" H 1888 5050 50  0001 C CNN
F 3 "~" H 1850 5200 50  0001 C CNN
F 4 "C1644" V 1850 5200 50  0001 C CNN "LCSC"
	1    1850 5200
	0    1    1    0   
$EndComp
Wire Wire Line
	2000 4900 2100 4900
Wire Wire Line
	2100 4900 2350 4900
Connection ~ 2100 4900
Wire Wire Line
	2000 5200 2100 5200
Wire Wire Line
	2100 5200 2350 5200
Connection ~ 2100 5200
$Comp
L power:GND #PWR0118
U 1 1 602F2C4A
P 1600 5300
F 0 "#PWR0118" H 1600 5050 50  0001 C CNN
F 1 "GND" H 1605 5127 50  0000 C CNN
F 2 "" H 1600 5300 50  0001 C CNN
F 3 "" H 1600 5300 50  0001 C CNN
	1    1600 5300
	1    0    0    -1  
$EndComp
Wire Wire Line
	1600 5300 1600 5200
Wire Wire Line
	1600 4900 1700 4900
Wire Wire Line
	1700 5200 1600 5200
Connection ~ 1600 5200
Wire Wire Line
	1600 5200 1600 4900
$Comp
L Device:C C6
U 1 1 602FCA74
P 5050 4200
F 0 "C6" V 4798 4200 50  0000 C CNN
F 1 "100nF" V 4889 4200 50  0000 C CNN
F 2 "Capacitor_SMD:C_1206_3216Metric_Pad1.33x1.80mm_HandSolder" H 5088 4050 50  0001 C CNN
F 3 "~" H 5050 4200 50  0001 C CNN
F 4 "C1945" V 5050 4200 50  0001 C CNN "LCSC"
	1    5050 4200
	0    1    1    0   
$EndComp
$Comp
L power:GND #PWR0119
U 1 1 602FD591
P 3050 6500
F 0 "#PWR0119" H 3050 6250 50  0001 C CNN
F 1 "GND" H 3055 6327 50  0000 C CNN
F 2 "" H 3050 6500 50  0001 C CNN
F 3 "" H 3050 6500 50  0001 C CNN
	1    3050 6500
	1    0    0    -1  
$EndComp
Wire Wire Line
	3050 6500 3050 6200
Wire Wire Line
	3250 6100 3250 6200
Wire Wire Line
	3250 6200 3050 6200
Connection ~ 3050 6200
Wire Wire Line
	3050 6200 3050 6100
Wire Wire Line
	3350 6100 3350 6200
Wire Wire Line
	3350 6200 3250 6200
Connection ~ 3250 6200
Text GLabel 5200 4200 2    50   Input ~ 0
RESET
$Comp
L Device:R R8
U 1 1 60312F5C
P 4550 3600
F 0 "R8" V 4343 3600 50  0000 C CNN
F 1 "1k" V 4434 3600 50  0000 C CNN
F 2 "Resistor_SMD:R_1206_3216Metric_Pad1.30x1.75mm_HandSolder" V 4480 3600 50  0001 C CNN
F 3 "~" H 4550 3600 50  0001 C CNN
F 4 "C4410" V 4550 3600 50  0001 C CNN "LCSC"
	1    4550 3600
	0    1    1    0   
$EndComp
$Comp
L Device:R R9
U 1 1 603132DD
P 4550 3900
F 0 "R9" V 4343 3900 50  0000 C CNN
F 1 "1k" V 4434 3900 50  0000 C CNN
F 2 "Resistor_SMD:R_1206_3216Metric_Pad1.30x1.75mm_HandSolder" V 4480 3900 50  0001 C CNN
F 3 "~" H 4550 3900 50  0001 C CNN
F 4 "C4410" V 4550 3900 50  0001 C CNN "LCSC"
	1    4550 3900
	0    1    1    0   
$EndComp
Wire Wire Line
	4150 3900 4400 3900
Wire Wire Line
	4150 3800 4250 3800
Wire Wire Line
	4250 3800 4250 3600
Wire Wire Line
	4250 3600 4400 3600
Text GLabel 4900 3600 2    50   Input ~ 0
RX
Text GLabel 4900 3900 2    50   Input ~ 0
TX
Wire Wire Line
	4900 3900 4700 3900
Wire Wire Line
	4900 3600 4700 3600
$Comp
L Device:LED D4
U 1 1 6033033B
P 4550 5200
F 0 "D4" H 4543 5417 50  0000 C CNN
F 1 "TXLED" H 4543 5326 50  0000 C CNN
F 2 "LED_SMD:LED_1206_3216Metric_Pad1.42x1.75mm_HandSolder" H 4550 5200 50  0001 C CNN
F 3 "~" H 4550 5200 50  0001 C CNN
F 4 " C93094" H 4550 5200 50  0001 C CNN "LCSC"
	1    4550 5200
	1    0    0    -1  
$EndComp
$Comp
L Device:LED D5
U 1 1 6033162E
P 4550 5500
F 0 "D5" H 4543 5717 50  0000 C CNN
F 1 "RXLED" H 4543 5626 50  0000 C CNN
F 2 "LED_SMD:LED_1206_3216Metric_Pad1.42x1.75mm_HandSolder" H 4550 5500 50  0001 C CNN
F 3 "~" H 4550 5500 50  0001 C CNN
F 4 " C93094" H 4550 5500 50  0001 C CNN "LCSC"
	1    4550 5500
	1    0    0    -1  
$EndComp
$Comp
L Device:R R11
U 1 1 60337D96
P 4850 5500
F 0 "R11" V 4643 5500 50  0000 C CNN
F 1 "1k" V 4734 5500 50  0000 C CNN
F 2 "Resistor_SMD:R_1206_3216Metric_Pad1.30x1.75mm_HandSolder" V 4780 5500 50  0001 C CNN
F 3 "~" H 4850 5500 50  0001 C CNN
F 4 "C4410" V 4850 5500 50  0001 C CNN "LCSC"
	1    4850 5500
	0    1    1    0   
$EndComp
$Comp
L Device:R R10
U 1 1 6033869E
P 4850 5200
F 0 "R10" V 4643 5200 50  0000 C CNN
F 1 "1k" V 4734 5200 50  0000 C CNN
F 2 "Resistor_SMD:R_1206_3216Metric_Pad1.30x1.75mm_HandSolder" V 4780 5200 50  0001 C CNN
F 3 "~" H 4850 5200 50  0001 C CNN
F 4 "C4410" V 4850 5200 50  0001 C CNN "LCSC"
	1    4850 5200
	0    1    1    0   
$EndComp
Wire Wire Line
	4400 5200 4150 5200
Wire Wire Line
	4400 5500 4150 5500
$Comp
L power:+5V #PWR0120
U 1 1 603450E5
P 5200 5350
F 0 "#PWR0120" H 5200 5200 50  0001 C CNN
F 1 "+5V" V 5215 5478 50  0000 L CNN
F 2 "" H 5200 5350 50  0001 C CNN
F 3 "" H 5200 5350 50  0001 C CNN
	1    5200 5350
	0    1    1    0   
$EndComp
Wire Wire Line
	5200 5350 5100 5350
Wire Wire Line
	5100 5350 5100 5200
Wire Wire Line
	5100 5200 5000 5200
Wire Wire Line
	5000 5500 5100 5500
Wire Wire Line
	5100 5500 5100 5350
Connection ~ 5100 5350
$Comp
L power:+5V #PWR0121
U 1 1 60352B1F
P 4150 5100
F 0 "#PWR0121" H 4150 4950 50  0001 C CNN
F 1 "+5V" V 4165 5228 50  0000 L CNN
F 2 "" H 4150 5100 50  0001 C CNN
F 3 "" H 4150 5100 50  0001 C CNN
	1    4150 5100
	0    1    1    0   
$EndComp
$Comp
L Device:R USB_EN1
U 1 1 603535FF
P 4750 4350
F 0 "USB_EN1" H 4820 4396 50  0000 L CNN
F 1 "1k" H 4820 4305 50  0000 L CNN
F 2 "Resistor_SMD:R_1206_3216Metric_Pad1.30x1.75mm_HandSolder" V 4680 4350 50  0001 C CNN
F 3 "~" H 4750 4350 50  0001 C CNN
F 4 "C4410" H 4750 4350 50  0001 C CNN "LCSC"
	1    4750 4350
	1    0    0    -1  
$EndComp
$Comp
L power:GND #PWR0122
U 1 1 60353CE1
P 4750 4500
F 0 "#PWR0122" H 4750 4250 50  0001 C CNN
F 1 "GND" H 4755 4327 50  0000 C CNN
F 2 "" H 4750 4500 50  0001 C CNN
F 3 "" H 4750 4500 50  0001 C CNN
	1    4750 4500
	1    0    0    -1  
$EndComp
$Comp
L Regulator_Linear:AP131-33 U3
U 1 1 60355BA5
P 4900 7900
F 0 "U3" H 4900 8242 50  0000 C CNN
F 1 "LP2985-33DBVR" H 4900 8151 50  0000 C CNN
F 2 "Package_TO_SOT_SMD:SOT-23-5" H 4900 8225 50  0001 C CNN
F 3 "http://www.diodes.com/_files/datasheets/AP131.pdf" H 4900 7900 50  0001 C CNN
F 4 "C95414" H 4900 7900 50  0001 C CNN "LCSC"
	1    4900 7900
	1    0    0    -1  
$EndComp
$Comp
L power:GND #PWR0123
U 1 1 6035869B
P 4900 8200
F 0 "#PWR0123" H 4900 7950 50  0001 C CNN
F 1 "GND" H 4905 8027 50  0000 C CNN
F 2 "" H 4900 8200 50  0001 C CNN
F 3 "" H 4900 8200 50  0001 C CNN
	1    4900 8200
	1    0    0    -1  
$EndComp
$Comp
L power:+3.3V #PWR0124
U 1 1 60358DFF
P 5600 7750
F 0 "#PWR0124" H 5600 7600 50  0001 C CNN
F 1 "+3.3V" H 5615 7923 50  0000 C CNN
F 2 "" H 5600 7750 50  0001 C CNN
F 3 "" H 5600 7750 50  0001 C CNN
	1    5600 7750
	1    0    0    -1  
$EndComp
Wire Wire Line
	5200 7800 5450 7800
Wire Wire Line
	5600 7800 5600 7750
$Comp
L power:+5V #PWR0125
U 1 1 60360962
P 4250 7700
F 0 "#PWR0125" H 4250 7550 50  0001 C CNN
F 1 "+5V" H 4265 7873 50  0000 C CNN
F 2 "" H 4250 7700 50  0001 C CNN
F 3 "" H 4250 7700 50  0001 C CNN
	1    4250 7700
	1    0    0    -1  
$EndComp
Wire Wire Line
	4600 7800 4400 7800
Wire Wire Line
	4250 7800 4250 7700
Wire Wire Line
	4600 7900 4400 7900
Wire Wire Line
	4400 7900 4400 7800
Connection ~ 4400 7800
Wire Wire Line
	4400 7800 4250 7800
$Comp
L Device:C C7
U 1 1 6036F477
P 5450 8050
F 0 "C7" H 5565 8096 50  0000 L CNN
F 1 "1uF" H 5565 8005 50  0000 L CNN
F 2 "Capacitor_SMD:C_1206_3216Metric_Pad1.33x1.80mm_HandSolder" H 5488 7900 50  0001 C CNN
F 3 "~" H 5450 8050 50  0001 C CNN
F 4 "C1848" H 5450 8050 50  0001 C CNN "LCSC"
	1    5450 8050
	1    0    0    -1  
$EndComp
$Comp
L power:GND #PWR0126
U 1 1 60370474
P 5450 8200
F 0 "#PWR0126" H 5450 7950 50  0001 C CNN
F 1 "GND" H 5455 8027 50  0000 C CNN
F 2 "" H 5450 8200 50  0001 C CNN
F 3 "" H 5450 8200 50  0001 C CNN
	1    5450 8200
	1    0    0    -1  
$EndComp
Wire Wire Line
	5450 7900 5450 7800
Connection ~ 5450 7800
Wire Wire Line
	5450 7800 5600 7800
$Comp
L eec:L293DD U6
U 1 1 60271C0D
P 11900 5450
F 0 "U6" H 12600 5715 50  0000 C CNN
F 1 "L293DD" H 12600 5624 50  0000 C CNN
F 2 "Package_SO:SOIC-20W_7.5x12.8mm_P1.27mm" H 11900 5850 50  0001 L CNN
F 3 "http://www.st.com/content/ccc/resource/technical/document/datasheet/04/ac/22/f9/20/5d/43/a1/CD00000059.pdf/files/CD00000059.pdf/jcr:content/translations/en.CD00000059.pdf" H 11900 5950 50  0001 L CNN
F 4 "0603" H 11900 6050 50  0001 L CNN "Case Code Imperial"
F 5 "1608" H 11900 6150 50  0001 L CNN "Case Code Metric"
F 6 "0603" H 11900 6250 50  0001 L CNN "Case Package"
F 7 "Manufacturer URL" H 11900 6350 50  0001 L CNN "Component Link 1 Description"
F 8 "http://www.st.com/" H 11900 6450 50  0001 L CNN "Component Link 1 URL"
F 9 "Jul-03" H 11900 6550 50  0001 L CNN "Datasheet Version"
F 10 "0.45 mm" H 11900 6650 50  0001 L CNN "Height"
F 11 "1.6 mm" H 11900 6750 50  0001 L CNN "Length"
F 12 "155 degC" H 11900 6850 50  0001 L CNN "Max Operating Temperature"
F 13 "-55 degC" H 11900 6950 50  0001 L CNN "Min Operating Temperature"
F 14 "Surface Mount" H 11900 7050 50  0001 L CNN "Mount"
F 15 "20-Pin Small Outline Integrated Circuit, Body 12.8 x 7.5 mm, Pitch 1.27 mm" H 11900 7150 50  0001 L CNN "Package Description"
F 16 "5000" H 11900 7250 50  0001 L CNN "Package Quantity"
F 17 "Tape and Reel" H 11900 7350 50  0001 L CNN "Packaging"
F 18 "100 mW" H 11900 7450 50  0001 L CNN "Power Rating"
F 19 "Unknown" H 11900 7550 50  0001 L CNN "REACH SVHC"
F 20 "true" H 11900 7650 50  0001 L CNN "Ro HSCompliant"
F 21 "1%" H 11900 7750 50  0001 L CNN "Tolerance"
F 22 "50 V" H 11900 7850 50  0001 L CNN "Voltage Rating"
F 23 "0.8 mm" H 11900 7950 50  0001 L CNN "Width"
F 24 "IC" H 11900 8050 50  0001 L CNN "category"
F 25 "1432915" H 11900 8150 50  0001 L CNN "ciiva ids"
F 26 "2683ed5cd1ca3cab" H 11900 8250 50  0001 L CNN "library id"
F 27 "STMicroelectronics" H 11900 8350 50  0001 L CNN "manufacturer"
F 28 "SOIC-20" H 11900 8450 50  0001 L CNN "package"
F 29 "1475050791" H 11900 8550 50  0001 L CNN "release date"
F 30 "15 kohm" H 11900 8650 50  0001 L CNN "resistance"
F 31 "F1FD25BE-D12F-47F3-AAD4-87256EA1A705" H 11900 8750 50  0001 L CNN "vault revision"
F 32 "yes" H 11900 8850 50  0001 L CNN "imported"
F 33 "C21610" H 11900 5450 50  0001 C CNN "LCSC"
	1    11900 5450
	1    0    0    -1  
$EndComp
$Comp
L power:GND #PWR0127
U 1 1 60273447
P 13450 7050
F 0 "#PWR0127" H 13450 6800 50  0001 C CNN
F 1 "GND" H 13455 6877 50  0000 C CNN
F 2 "" H 13450 7050 50  0001 C CNN
F 3 "" H 13450 7050 50  0001 C CNN
	1    13450 7050
	1    0    0    -1  
$EndComp
$Comp
L power:+5V #PWR0128
U 1 1 60273DB0
P 11800 7050
F 0 "#PWR0128" H 11800 6900 50  0001 C CNN
F 1 "+5V" H 11815 7223 50  0000 C CNN
F 2 "" H 11800 7050 50  0001 C CNN
F 3 "" H 11800 7050 50  0001 C CNN
	1    11800 7050
	-1   0    0    1   
$EndComp
Wire Wire Line
	13450 7050 13450 6950
Wire Wire Line
	13450 6250 13200 6250
Wire Wire Line
	13200 6350 13450 6350
Connection ~ 13450 6350
Wire Wire Line
	13450 6350 13450 6250
Wire Wire Line
	13200 6450 13450 6450
Connection ~ 13450 6450
Wire Wire Line
	13450 6450 13450 6350
Wire Wire Line
	13200 6550 13450 6550
Connection ~ 13450 6550
Wire Wire Line
	13450 6550 13450 6450
Wire Wire Line
	13200 6650 13450 6650
Connection ~ 13450 6650
Wire Wire Line
	13450 6650 13450 6550
Wire Wire Line
	13200 6750 13450 6750
Connection ~ 13450 6750
Wire Wire Line
	13450 6750 13450 6650
Wire Wire Line
	13200 6850 13450 6850
Connection ~ 13450 6850
Wire Wire Line
	13450 6850 13450 6750
Wire Wire Line
	13200 6950 13450 6950
Connection ~ 13450 6950
Wire Wire Line
	13450 6950 13450 6850
$Comp
L 74xGxx:74LVC1G04 U5
U 1 1 602C6B0D
P 11500 6150
F 0 "U5" H 11475 6417 50  0000 C CNN
F 1 "74HC1G04GW" H 11475 6326 50  0000 C CNN
F 2 "Package_TO_SOT_SMD:SOT-353_SC-70-5_Handsoldering" H 11500 6150 50  0001 C CNN
F 3 "http://www.ti.com/lit/sg/scyt129e/scyt129e.pdf" H 11500 6150 50  0001 C CNN
F 4 "C150227" H 11500 6150 50  0001 C CNN "LCSC"
	1    11500 6150
	1    0    0    -1  
$EndComp
$Comp
L 74xGxx:74LVC1G04 U4
U 1 1 602C796E
P 11500 5550
F 0 "U4" H 11475 5817 50  0000 C CNN
F 1 "74HC1G04GW" H 11475 5726 50  0000 C CNN
F 2 "Package_TO_SOT_SMD:SOT-353_SC-70-5_Handsoldering" H 11500 5550 50  0001 C CNN
F 3 "http://www.ti.com/lit/sg/scyt129e/scyt129e.pdf" H 11500 5550 50  0001 C CNN
F 4 "C150227" H 11500 5550 50  0001 C CNN "LCSC"
	1    11500 5550
	1    0    0    -1  
$EndComp
$Comp
L power:GND #PWR0129
U 1 1 602EBB62
P 11500 5650
F 0 "#PWR0129" H 11500 5400 50  0001 C CNN
F 1 "GND" H 11505 5477 50  0000 C CNN
F 2 "" H 11500 5650 50  0001 C CNN
F 3 "" H 11500 5650 50  0001 C CNN
	1    11500 5650
	1    0    0    -1  
$EndComp
$Comp
L power:GND #PWR0130
U 1 1 602EC814
P 11500 6250
F 0 "#PWR0130" H 11500 6000 50  0001 C CNN
F 1 "GND" H 11505 6077 50  0000 C CNN
F 2 "" H 11500 6250 50  0001 C CNN
F 3 "" H 11500 6250 50  0001 C CNN
	1    11500 6250
	1    0    0    -1  
$EndComp
$Comp
L power:+5V #PWR0131
U 1 1 602ED62B
P 11500 5450
F 0 "#PWR0131" H 11500 5300 50  0001 C CNN
F 1 "+5V" H 11515 5623 50  0000 C CNN
F 2 "" H 11500 5450 50  0001 C CNN
F 3 "" H 11500 5450 50  0001 C CNN
	1    11500 5450
	1    0    0    -1  
$EndComp
$Comp
L power:+5V #PWR0132
U 1 1 602EE136
P 11500 6050
F 0 "#PWR0132" H 11500 5900 50  0001 C CNN
F 1 "+5V" H 11515 6223 50  0000 C CNN
F 2 "" H 11500 6050 50  0001 C CNN
F 3 "" H 11500 6050 50  0001 C CNN
	1    11500 6050
	1    0    0    -1  
$EndComp
Wire Wire Line
	11750 5550 11850 5550
Wire Wire Line
	11850 5550 11850 5650
Wire Wire Line
	11850 5650 12000 5650
Wire Wire Line
	11750 6150 11750 6050
Wire Wire Line
	11750 6050 12000 6050
Wire Wire Line
	11200 5200 11900 5200
Wire Wire Line
	11900 5200 11900 5450
Wire Wire Line
	11900 5450 12000 5450
Wire Wire Line
	12000 5850 11200 5850
Text GLabel 10400 6350 0    50   Input ~ 0
PWMA
Text GLabel 10400 6450 0    50   Input ~ 0
PWMB
$Comp
L Connector:Raspberry_Pi_2_3 J6
U 1 1 60293B1B
P 12650 3000
F 0 "J6" H 12650 4481 50  0000 C CNN
F 1 "Raspberry_Pi_2_3" H 12650 4390 50  0000 C CNN
F 2 "schema_kart:Raspberry_Pi_Zero" H 12650 3000 50  0001 C CNN
F 3 "https://www.raspberrypi.org/documentation/hardware/raspberrypi/schematics/rpi_SCH_3bplus_1p0_reduced.pdf" H 12650 3000 50  0001 C CNN
	1    12650 3000
	1    0    0    -1  
$EndComp
Wire Wire Line
	9300 5300 9100 5300
Wire Wire Line
	9300 5400 9100 5400
Wire Wire Line
	9300 5500 9100 5500
Wire Wire Line
	9300 5600 9100 5600
Wire Wire Line
	9300 6200 9100 6200
Wire Wire Line
	9300 6300 9100 6300
$Comp
L power:GND #PWR0133
U 1 1 6030B3D5
P 13200 4400
F 0 "#PWR0133" H 13200 4150 50  0001 C CNN
F 1 "GND" V 13205 4272 50  0000 R CNN
F 2 "" H 13200 4400 50  0001 C CNN
F 3 "" H 13200 4400 50  0001 C CNN
	1    13200 4400
	0    -1   -1   0   
$EndComp
Wire Wire Line
	13200 4400 12950 4400
Wire Wire Line
	12250 4400 12250 4300
Wire Wire Line
	12350 4300 12350 4400
Connection ~ 12350 4400
Wire Wire Line
	12350 4400 12250 4400
Wire Wire Line
	12450 4300 12450 4400
Connection ~ 12450 4400
Wire Wire Line
	12450 4400 12350 4400
Wire Wire Line
	12550 4300 12550 4400
Connection ~ 12550 4400
Wire Wire Line
	12550 4400 12450 4400
Wire Wire Line
	12650 4300 12650 4400
Connection ~ 12650 4400
Wire Wire Line
	12650 4400 12550 4400
Wire Wire Line
	12750 4300 12750 4400
Connection ~ 12750 4400
Wire Wire Line
	12750 4400 12650 4400
Wire Wire Line
	12850 4300 12850 4400
Connection ~ 12850 4400
Wire Wire Line
	12850 4400 12750 4400
Wire Wire Line
	12950 4300 12950 4400
Connection ~ 12950 4400
Wire Wire Line
	12950 4400 12850 4400
Wire Wire Line
	11800 7050 11800 6950
Wire Wire Line
	11800 6950 12000 6950
$Comp
L power:+5VP #PWR0134
U 1 1 60369E0C
P 1800 7800
F 0 "#PWR0134" H 1800 7650 50  0001 C CNN
F 1 "+5VP" H 1815 7973 50  0000 C CNN
F 2 "" H 1800 7800 50  0001 C CNN
F 3 "" H 1800 7800 50  0001 C CNN
	1    1800 7800
	0    1    1    0   
$EndComp
$Comp
L power:+5VP #PWR0135
U 1 1 60377D99
P 11250 6850
F 0 "#PWR0135" H 11250 6700 50  0001 C CNN
F 1 "+5VP" V 11265 6978 50  0000 L CNN
F 2 "" H 11250 6850 50  0001 C CNN
F 3 "" H 11250 6850 50  0001 C CNN
	1    11250 6850
	0    -1   -1   0   
$EndComp
$Comp
L power:GND #PWR0136
U 1 1 603870B9
P 1300 7900
F 0 "#PWR0136" H 1300 7650 50  0001 C CNN
F 1 "GND" H 1305 7727 50  0000 C CNN
F 2 "" H 1300 7900 50  0001 C CNN
F 3 "" H 1300 7900 50  0001 C CNN
	1    1300 7900
	1    0    0    -1  
$EndComp
$Comp
L Connector_Generic:Conn_01x02 J3
U 1 1 603AB1F9
P 1000 7800
F 0 "J3" H 918 7475 50  0000 C CNN
F 1 "Conn_01x02" H 918 7566 50  0000 C CNN
F 2 "Connector_PinHeader_2.54mm:PinHeader_1x02_P2.54mm_Vertical" H 1000 7800 50  0001 C CNN
F 3 "~" H 1000 7800 50  0001 C CNN
	1    1000 7800
	-1   0    0    1   
$EndComp
$Comp
L Connector_Generic:Conn_01x02 J9
U 1 1 603DAB6F
P 13650 5500
F 0 "J9" H 13730 5492 50  0000 L CNN
F 1 "Conn_01x02" H 13730 5401 50  0000 L CNN
F 2 "Connector_JST:JST_PH_B2B-PH-K_1x02_P2.00mm_Vertical" H 13650 5500 50  0001 C CNN
F 3 "~" H 13650 5500 50  0001 C CNN
	1    13650 5500
	1    0    0    -1  
$EndComp
$Comp
L Connector_Generic:Conn_01x02 J10
U 1 1 603DC268
P 13650 5900
F 0 "J10" H 13730 5892 50  0000 L CNN
F 1 "Conn_01x02" H 13730 5801 50  0000 L CNN
F 2 "Connector_JST:JST_PH_B2B-PH-K_1x02_P2.00mm_Vertical" H 13650 5900 50  0001 C CNN
F 3 "~" H 13650 5900 50  0001 C CNN
	1    13650 5900
	1    0    0    -1  
$EndComp
Wire Wire Line
	13450 5500 13350 5500
Wire Wire Line
	13350 5500 13350 5450
Wire Wire Line
	13350 5450 13200 5450
Wire Wire Line
	13450 5600 13350 5600
Wire Wire Line
	13350 5600 13350 5650
Wire Wire Line
	13350 5650 13200 5650
Wire Wire Line
	13450 5900 13350 5900
Wire Wire Line
	13350 5900 13350 5850
Wire Wire Line
	13350 5850 13200 5850
Wire Wire Line
	13450 6000 13350 6000
Wire Wire Line
	13350 6000 13350 6050
Wire Wire Line
	13350 6050 13200 6050
$Comp
L Switch:SW_SPDT SW1
U 1 1 6040F553
P 1500 7700
F 0 "SW1" H 1500 7985 50  0000 C CNN
F 1 "SW_SPDT" H 1500 7894 50  0000 C CNN
F 2 "Connector_JST:JST_EH_B3B-EH-A_1x03_P2.50mm_Vertical" H 1500 7700 50  0001 C CNN
F 3 "~" H 1500 7700 50  0001 C CNN
	1    1500 7700
	1    0    0    -1  
$EndComp
Wire Wire Line
	1800 7800 1700 7800
Wire Wire Line
	1300 7700 1200 7700
Wire Wire Line
	1300 7900 1300 7800
Wire Wire Line
	1300 7800 1200 7800
$Comp
L Device:D_Schottky D1
U 1 1 604D8B5A
P 3450 7600
F 0 "D1" H 3450 7383 50  0000 C CNN
F 1 "PMEG2010AEH" H 3450 7474 50  0000 C CNN
F 2 "Diode_SMD:D_SOD-123" H 3450 7600 50  0001 C CNN
F 3 "~" H 3450 7600 50  0001 C CNN
F 4 "C109212" H 3450 7600 50  0001 C CNN "LCSC"
	1    3450 7600
	-1   0    0    1   
$EndComp
$Comp
L Device:D_Schottky D2
U 1 1 604DAEEA
P 3450 8000
F 0 "D2" H 3450 7783 50  0000 C CNN
F 1 "PMEG2010AEH" H 3450 7874 50  0000 C CNN
F 2 "Diode_SMD:D_SOD-123" H 3450 8000 50  0001 C CNN
F 3 "~" H 3450 8000 50  0001 C CNN
F 4 "C109212" H 3450 8000 50  0001 C CNN "LCSC"
	1    3450 8000
	-1   0    0    1   
$EndComp
Wire Wire Line
	3600 7600 3950 7600
Wire Wire Line
	3950 7600 3950 7800
Wire Wire Line
	3950 7800 4250 7800
Connection ~ 4250 7800
Wire Wire Line
	3600 8000 3950 8000
Wire Wire Line
	3950 8000 3950 7800
Connection ~ 3950 7800
$Comp
L power:+5VP #PWR0137
U 1 1 604F64BB
P 3050 8000
F 0 "#PWR0137" H 3050 7850 50  0001 C CNN
F 1 "+5VP" V 3065 8128 50  0000 L CNN
F 2 "" H 3050 8000 50  0001 C CNN
F 3 "" H 3050 8000 50  0001 C CNN
	1    3050 8000
	0    -1   -1   0   
$EndComp
Wire Wire Line
	3050 8000 3300 8000
$Comp
L power:VBUS #PWR0138
U 1 1 60503FBB
P 3050 7600
F 0 "#PWR0138" H 3050 7450 50  0001 C CNN
F 1 "VBUS" V 3065 7727 50  0000 L CNN
F 2 "" H 3050 7600 50  0001 C CNN
F 3 "" H 3050 7600 50  0001 C CNN
	1    3050 7600
	0    -1   -1   0   
$EndComp
Wire Wire Line
	3050 7600 3300 7600
$Comp
L power:+5VP #PWR0139
U 1 1 60520C59
P 12100 1650
F 0 "#PWR0139" H 12100 1500 50  0001 C CNN
F 1 "+5VP" V 12115 1778 50  0000 L CNN
F 2 "" H 12100 1650 50  0001 C CNN
F 3 "" H 12100 1650 50  0001 C CNN
	1    12100 1650
	0    -1   -1   0   
$EndComp
Wire Wire Line
	12100 1650 12450 1650
Wire Wire Line
	12550 1650 12550 1700
Wire Wire Line
	12450 1700 12450 1650
Connection ~ 12450 1650
Wire Wire Line
	12450 1650 12550 1650
$Comp
L Device:R R16
U 1 1 6053E5A6
P 10950 1850
F 0 "R16" V 10743 1850 50  0000 C CNN
F 1 "10k" V 10834 1850 50  0000 C CNN
F 2 "Resistor_SMD:R_1206_3216Metric_Pad1.30x1.75mm_HandSolder" V 10880 1850 50  0001 C CNN
F 3 "~" H 10950 1850 50  0001 C CNN
F 4 "C17902" V 10950 1850 50  0001 C CNN "LCSC"
	1    10950 1850
	1    0    0    -1  
$EndComp
$Comp
L Device:R R17
U 1 1 6053F566
P 10300 1850
F 0 "R17" H 10370 1896 50  0000 L CNN
F 1 "10k" H 10370 1805 50  0000 L CNN
F 2 "Resistor_SMD:R_1206_3216Metric_Pad1.30x1.75mm_HandSolder" V 10230 1850 50  0001 C CNN
F 3 "~" H 10300 1850 50  0001 C CNN
F 4 "C17902" H 10300 1850 50  0001 C CNN "LCSC"
	1    10300 1850
	1    0    0    -1  
$EndComp
Text GLabel 7050 3900 0    50   Input ~ 0
PWMA
Text GLabel 7050 3800 0    50   Input ~ 0
PWMB
Text GLabel 11000 5350 0    50   Input ~ 0
ENA
Text GLabel 11000 6000 0    50   Input ~ 0
ENB
Text GLabel 7150 7100 0    50   Input ~ 0
ENA
Text GLabel 7150 7200 0    50   Input ~ 0
ENB
Text GLabel 13600 8950 0    50   Input ~ 0
RXD1
Wire Wire Line
	10300 1700 10300 1650
$Comp
L Transistor_BJT:BC847 Q1
U 1 1 602A9B82
P 6650 9550
F 0 "Q1" H 6841 9596 50  0000 L CNN
F 1 "BC847" H 6841 9505 50  0000 L CNN
F 2 "Package_TO_SOT_SMD:SOT-23_Handsoldering" H 6850 9475 50  0001 L CIN
F 3 "http://www.infineon.com/dgdl/Infineon-BC847SERIES_BC848SERIES_BC849SERIES_BC850SERIES-DS-v01_01-en.pdf?fileId=db3a304314dca389011541d4630a1657" H 6650 9550 50  0001 L CNN
F 4 "C397577" H 6650 9550 50  0001 C CNN "LCSC"
	1    6650 9550
	1    0    0    -1  
$EndComp
$Comp
L Device:R R14
U 1 1 602AA44D
P 6100 9550
F 0 "R14" V 5893 9550 50  0000 C CNN
F 1 "1K" V 5984 9550 50  0000 C CNN
F 2 "Resistor_SMD:R_1206_3216Metric_Pad1.30x1.75mm_HandSolder" V 6030 9550 50  0001 C CNN
F 3 "~" H 6100 9550 50  0001 C CNN
F 4 "C4410" V 6100 9550 50  0001 C CNN "LCSC"
	1    6100 9550
	0    1    1    0   
$EndComp
$Comp
L power:GND #PWR0145
U 1 1 602ABA4E
P 6750 9900
F 0 "#PWR0145" H 6750 9650 50  0001 C CNN
F 1 "GND" H 6755 9727 50  0000 C CNN
F 2 "" H 6750 9900 50  0001 C CNN
F 3 "" H 6750 9900 50  0001 C CNN
	1    6750 9900
	1    0    0    -1  
$EndComp
$Comp
L Device:R R15
U 1 1 602AC6AD
P 6750 9050
F 0 "R15" H 6820 9096 50  0000 L CNN
F 1 "100" H 6820 9005 50  0000 L CNN
F 2 "Resistor_SMD:R_1206_3216Metric_Pad1.30x1.75mm_HandSolder" V 6680 9050 50  0001 C CNN
F 3 "~" H 6750 9050 50  0001 C CNN
F 4 "C17901" H 6750 9050 50  0001 C CNN "LCSC"
	1    6750 9050
	1    0    0    -1  
$EndComp
Wire Wire Line
	6450 9550 6250 9550
Wire Wire Line
	6750 9750 6750 9850
Wire Wire Line
	6750 9200 6750 9300
Wire Wire Line
	7150 9500 7150 9300
Wire Wire Line
	7150 9300 6750 9300
Connection ~ 6750 9300
Wire Wire Line
	6750 9300 6750 9350
Wire Wire Line
	7150 9600 7150 9850
Wire Wire Line
	7150 9850 6750 9850
Connection ~ 6750 9850
Wire Wire Line
	6750 9850 6750 9900
Text GLabel 6750 8700 1    50   Input ~ 0
PWM_IR
Wire Wire Line
	6750 8700 6750 8900
Text GLabel 7100 4000 0    50   Input ~ 0
PWM_IR
Wire Wire Line
	7100 4000 7500 4000
Text Label 7200 4000 0    50   ~ 0
44
Wire Wire Line
	5700 9550 5950 9550
$Comp
L Device:LED D6
U 1 1 6039021B
P 4850 2050
F 0 "D6" V 4889 1932 50  0000 R CNN
F 1 "LED" V 4798 1932 50  0000 R CNN
F 2 "LED_SMD:LED_1206_3216Metric_Pad1.42x1.75mm_HandSolder" H 4850 2050 50  0001 C CNN
F 3 "~" H 4850 2050 50  0001 C CNN
F 4 "C375582" V 4850 2050 50  0001 C CNN "LCSC"
	1    4850 2050
	0    -1   -1   0   
$EndComp
$Comp
L Device:R R12
U 1 1 6039160A
P 4850 1750
F 0 "R12" H 4920 1796 50  0000 L CNN
F 1 "1k" H 4920 1705 50  0000 L CNN
F 2 "Resistor_SMD:R_1206_3216Metric_Pad1.30x1.75mm_HandSolder" V 4780 1750 50  0001 C CNN
F 3 "~" H 4850 1750 50  0001 C CNN
F 4 "C4410" H 4850 1750 50  0001 C CNN "LCSC"
	1    4850 1750
	1    0    0    -1  
$EndComp
$Comp
L power:GND #PWR0146
U 1 1 60392ACD
P 4850 2200
F 0 "#PWR0146" H 4850 1950 50  0001 C CNN
F 1 "GND" H 4855 2027 50  0000 C CNN
F 2 "" H 4850 2200 50  0001 C CNN
F 3 "" H 4850 2200 50  0001 C CNN
	1    4850 2200
	1    0    0    -1  
$EndComp
$Comp
L power:+5V #PWR0147
U 1 1 60393882
P 4850 1600
F 0 "#PWR0147" H 4850 1450 50  0001 C CNN
F 1 "+5V" H 4865 1773 50  0000 C CNN
F 2 "" H 4850 1600 50  0001 C CNN
F 3 "" H 4850 1600 50  0001 C CNN
	1    4850 1600
	1    0    0    -1  
$EndComp
Wire Wire Line
	11250 6850 11400 6850
$Comp
L Device:CP C11
U 1 1 603B95E6
P 11400 7100
F 0 "C11" H 11518 7146 50  0000 L CNN
F 1 "100uF" H 11518 7055 50  0000 L CNN
F 2 "Capacitor_SMD:C_Elec_6.3x5.8" H 11438 6950 50  0001 C CNN
F 3 "~" H 11400 7100 50  0001 C CNN
F 4 "C97805" H 11400 7100 50  0001 C CNN "LCSC"
	1    11400 7100
	1    0    0    -1  
$EndComp
Wire Wire Line
	11400 6950 11400 6850
Connection ~ 11400 6850
Wire Wire Line
	11400 6850 12000 6850
$Comp
L power:GND #PWR0148
U 1 1 603CC36B
P 11400 7250
F 0 "#PWR0148" H 11400 7000 50  0001 C CNN
F 1 "GND" H 11405 7077 50  0000 C CNN
F 2 "" H 11400 7250 50  0001 C CNN
F 3 "" H 11400 7250 50  0001 C CNN
	1    11400 7250
	1    0    0    -1  
$EndComp
Wire Wire Line
	11200 5200 11200 5350
Wire Wire Line
	11200 5850 11200 6000
Wire Wire Line
	11000 5350 11200 5350
Connection ~ 11200 5350
Wire Wire Line
	11200 5350 11200 5550
Wire Wire Line
	11000 6000 11200 6000
Connection ~ 11200 6000
Wire Wire Line
	11200 6000 11200 6150
$Comp
L Device:Q_NMOS_DSG Q2
U 1 1 6031047E
P 10650 2000
F 0 "Q2" V 10899 2000 50  0000 C CNN
F 1 "BS170FTA" V 10990 2000 50  0000 C CNN
F 2 "Package_TO_SOT_SMD:SOT-23_Handsoldering" H 10850 2100 50  0001 C CNN
F 3 "~" H 10650 2000 50  0001 C CNN
F 4 " C151050" V 10650 2000 50  0001 C CNN "LCSC"
	1    10650 2000
	0    -1   1    0   
$EndComp
$Comp
L Device:Q_NMOS_DSG Q3
U 1 1 60323C70
P 10650 2800
F 0 "Q3" V 10899 2800 50  0000 C CNN
F 1 "BS170FTA" V 10990 2800 50  0000 C CNN
F 2 "Package_TO_SOT_SMD:SOT-23_Handsoldering" H 10850 2900 50  0001 C CNN
F 3 "~" H 10650 2800 50  0001 C CNN
F 4 " C151050" V 10650 2800 50  0001 C CNN "LCSC"
	1    10650 2800
	0    -1   1    0   
$EndComp
$Comp
L power:+3.3VP #PWR0140
U 1 1 60324F96
P 13100 1600
F 0 "#PWR0140" H 13250 1550 50  0001 C CNN
F 1 "+3.3VP" H 13115 1773 50  0000 C CNN
F 2 "" H 13100 1600 50  0001 C CNN
F 3 "" H 13100 1600 50  0001 C CNN
	1    13100 1600
	1    0    0    -1  
$EndComp
Wire Wire Line
	13100 1600 12850 1600
Wire Wire Line
	12750 1600 12750 1700
Wire Wire Line
	12850 1700 12850 1600
Connection ~ 12850 1600
Wire Wire Line
	12850 1600 12750 1600
$Comp
L Device:R R19
U 1 1 60373490
P 11000 2650
F 0 "R19" H 11070 2696 50  0000 L CNN
F 1 "10k" H 11070 2605 50  0000 L CNN
F 2 "Resistor_SMD:R_1206_3216Metric_Pad1.30x1.75mm_HandSolder" V 10930 2650 50  0001 C CNN
F 3 "~" H 11000 2650 50  0001 C CNN
F 4 "C17902" H 11000 2650 50  0001 C CNN "LCSC"
	1    11000 2650
	1    0    0    -1  
$EndComp
$Comp
L Device:R R18
U 1 1 603B0306
P 10300 2650
F 0 "R18" H 10370 2696 50  0000 L CNN
F 1 "10k" H 10370 2605 50  0000 L CNN
F 2 "Resistor_SMD:R_1206_3216Metric_Pad1.30x1.75mm_HandSolder" V 10230 2650 50  0001 C CNN
F 3 "~" H 10300 2650 50  0001 C CNN
F 4 "C17902" H 10300 2650 50  0001 C CNN "LCSC"
	1    10300 2650
	1    0    0    -1  
$EndComp
$Comp
L power:+5V #PWR0149
U 1 1 603B1D69
P 10300 1650
F 0 "#PWR0149" H 10300 1500 50  0001 C CNN
F 1 "+5V" H 10315 1823 50  0000 C CNN
F 2 "" H 10300 1650 50  0001 C CNN
F 3 "" H 10300 1650 50  0001 C CNN
	1    10300 1650
	1    0    0    -1  
$EndComp
$Comp
L power:+5V #PWR0150
U 1 1 603B3003
P 10300 2500
F 0 "#PWR0150" H 10300 2350 50  0001 C CNN
F 1 "+5V" H 10315 2673 50  0000 C CNN
F 2 "" H 10300 2500 50  0001 C CNN
F 3 "" H 10300 2500 50  0001 C CNN
	1    10300 2500
	1    0    0    -1  
$EndComp
Wire Wire Line
	10300 2000 10300 2100
Wire Wire Line
	10300 2100 10450 2100
Wire Wire Line
	10850 2100 10950 2100
Wire Wire Line
	10950 2100 10950 2000
Wire Wire Line
	10650 1800 10650 1600
Wire Wire Line
	10650 1600 10950 1600
Wire Wire Line
	10950 1600 10950 1700
Wire Wire Line
	10650 2600 10650 2400
Wire Wire Line
	10650 2400 11000 2400
Wire Wire Line
	11000 2400 11000 2500
Wire Wire Line
	10850 2900 11000 2900
Wire Wire Line
	11000 2900 11000 2800
Wire Wire Line
	10300 2800 10300 2900
Wire Wire Line
	10300 2900 10450 2900
$Comp
L power:+3.3VP #PWR0151
U 1 1 60429E89
P 10950 1600
F 0 "#PWR0151" H 11100 1550 50  0001 C CNN
F 1 "+3.3VP" H 10965 1773 50  0000 C CNN
F 2 "" H 10950 1600 50  0001 C CNN
F 3 "" H 10950 1600 50  0001 C CNN
	1    10950 1600
	1    0    0    -1  
$EndComp
Connection ~ 10950 1600
$Comp
L power:+3.3VP #PWR0152
U 1 1 6042B357
P 11000 2400
F 0 "#PWR0152" H 11150 2350 50  0001 C CNN
F 1 "+3.3VP" H 11015 2573 50  0000 C CNN
F 2 "" H 11000 2400 50  0001 C CNN
F 3 "" H 11000 2400 50  0001 C CNN
	1    11000 2400
	1    0    0    -1  
$EndComp
Connection ~ 11000 2400
Connection ~ 10950 2100
Wire Wire Line
	11850 2200 11500 2200
Wire Wire Line
	11500 2200 11500 2900
Wire Wire Line
	11500 2900 11000 2900
Connection ~ 11000 2900
Wire Wire Line
	10950 2100 11850 2100
Text Notes 10300 1300 0    50   ~ 0
3.3V / 5V level shifter
$Comp
L Device:C C12
U 1 1 603736B9
P 3550 3150
F 0 "C12" H 3665 3196 50  0000 L CNN
F 1 "100nF" H 3665 3105 50  0000 L CNN
F 2 "Capacitor_SMD:C_1206_3216Metric_Pad1.33x1.80mm_HandSolder" H 3588 3000 50  0001 C CNN
F 3 "~" H 3550 3150 50  0001 C CNN
F 4 "C1945" H 3550 3150 50  0001 C CNN "LCSC"
	1    3550 3150
	1    0    0    -1  
$EndComp
Wire Wire Line
	3550 3300 3550 3450
$Comp
L power:GND #PWR0153
U 1 1 603894AD
P 3550 3000
F 0 "#PWR0153" H 3550 2750 50  0001 C CNN
F 1 "GND" H 3555 2827 50  0000 C CNN
F 2 "" H 3550 3000 50  0001 C CNN
F 3 "" H 3550 3000 50  0001 C CNN
	1    3550 3000
	-1   0    0    1   
$EndComp
Wire Wire Line
	7050 3900 7500 3900
Wire Wire Line
	7050 3800 7500 3800
Text GLabel 3000 1650 2    50   Input ~ 0
RESET
Text GLabel 10150 2100 0    50   Input ~ 0
RXD3
$Comp
L power:+5V #PWR0143
U 1 1 605E65FC
P 13600 8750
F 0 "#PWR0143" H 13600 8600 50  0001 C CNN
F 1 "+5V" H 13615 8923 50  0000 C CNN
F 2 "" H 13600 8750 50  0001 C CNN
F 3 "" H 13600 8750 50  0001 C CNN
	1    13600 8750
	0    -1   -1   0   
$EndComp
$Comp
L power:GND #PWR0142
U 1 1 605E591F
P 13600 9150
F 0 "#PWR0142" H 13600 8900 50  0001 C CNN
F 1 "GND" V 13605 9022 50  0000 R CNN
F 2 "" H 13600 9150 50  0001 C CNN
F 3 "" H 13600 9150 50  0001 C CNN
	1    13600 9150
	0    1    1    0   
$EndComp
Wire Wire Line
	7300 9500 7150 9500
Wire Wire Line
	7300 9600 7150 9600
$Comp
L Connector_Generic:Conn_01x02 J4
U 1 1 602ADA29
P 7500 9500
F 0 "J4" H 7580 9492 50  0000 L CNN
F 1 "LED_IR" H 7580 9401 50  0000 L CNN
F 2 "Connector_JST:JST_PH_B2B-PH-K_1x02_P2.00mm_Vertical" H 7500 9500 50  0001 C CNN
F 3 "~" H 7500 9500 50  0001 C CNN
	1    7500 9500
	1    0    0    -1  
$EndComp
$Comp
L Connector:Conn_01x02_Male J2
U 1 1 605208CC
P 2550 1400
F 0 "J2" H 2658 1581 50  0000 C CNN
F 1 "Prog" H 2658 1490 50  0000 C CNN
F 2 "Connector_PinHeader_2.54mm:PinHeader_1x02_P2.54mm_Vertical" H 2550 1400 50  0001 C CNN
F 3 "~" H 2550 1400 50  0001 C CNN
	1    2550 1400
	1    0    0    -1  
$EndComp
Wire Wire Line
	3000 1650 2850 1650
Wire Wire Line
	2850 1650 2850 1500
Wire Wire Line
	2850 1500 2750 1500
Text GLabel 10150 2900 0    50   Input ~ 0
TXD3
Wire Wire Line
	10150 2100 10300 2100
Connection ~ 10300 2100
Wire Wire Line
	10150 2900 10300 2900
Connection ~ 10300 2900
Text GLabel 5700 9550 0    50   Input ~ 0
TXD2
Wire Wire Line
	7150 7100 7500 7100
Wire Wire Line
	7150 7200 7500 7200
Text Notes 7250 7100 0    50   ~ 0
41
Text Notes 7250 7200 0    50   ~ 0
40
$Comp
L Connector_Generic:Conn_01x03 J11
U 1 1 60462F0C
P 10800 8800
F 0 "J11" H 10880 8842 50  0000 L CNN
F 1 "Servo" H 10880 8751 50  0000 L CNN
F 2 "Connector_PinSocket_2.54mm:PinSocket_1x03_P2.54mm_Vertical" H 10800 8800 50  0001 C CNN
F 3 "~" H 10800 8800 50  0001 C CNN
	1    10800 8800
	1    0    0    -1  
$EndComp
$Comp
L power:GND #PWR0101
U 1 1 60463B24
P 10400 8900
F 0 "#PWR0101" H 10400 8650 50  0001 C CNN
F 1 "GND" V 10405 8772 50  0000 R CNN
F 2 "" H 10400 8900 50  0001 C CNN
F 3 "" H 10400 8900 50  0001 C CNN
	1    10400 8900
	0    1    1    0   
$EndComp
$Comp
L power:+5VP #PWR0154
U 1 1 60465686
P 10250 8800
F 0 "#PWR0154" H 10250 8650 50  0001 C CNN
F 1 "+5VP" V 10265 8928 50  0000 L CNN
F 2 "" H 10250 8800 50  0001 C CNN
F 3 "" H 10250 8800 50  0001 C CNN
	1    10250 8800
	0    -1   -1   0   
$EndComp
Wire Wire Line
	10600 8900 10400 8900
Wire Wire Line
	10600 8800 10250 8800
$Comp
L Connector_Generic:Conn_01x02 J12
U 1 1 60491425
P 10800 9350
F 0 "J12" H 10880 9342 50  0000 L CNN
F 1 "Feu_AR" H 10880 9251 50  0000 L CNN
F 2 "Connector_JST:JST_PH_B2B-PH-K_1x02_P2.00mm_Vertical" H 10800 9350 50  0001 C CNN
F 3 "~" H 10800 9350 50  0001 C CNN
	1    10800 9350
	1    0    0    -1  
$EndComp
$Comp
L power:GND #PWR0155
U 1 1 60491A9F
P 10450 9850
F 0 "#PWR0155" H 10450 9600 50  0001 C CNN
F 1 "GND" V 10455 9722 50  0000 R CNN
F 2 "" H 10450 9850 50  0001 C CNN
F 3 "" H 10450 9850 50  0001 C CNN
	1    10450 9850
	1    0    0    -1  
$EndComp
$Comp
L Device:R R20
U 1 1 60485148
P 10400 8550
F 0 "R20" V 10193 8550 50  0000 C CNN
F 1 "220" V 10284 8550 50  0000 C CNN
F 2 "Resistor_SMD:R_1206_3216Metric_Pad1.30x1.75mm_HandSolder" V 10330 8550 50  0001 C CNN
F 3 "~" H 10400 8550 50  0001 C CNN
F 4 "C17957" V 10400 8550 50  0001 C CNN "LCSC"
	1    10400 8550
	-1   0    0    1   
$EndComp
Wire Wire Line
	10600 8700 10400 8700
Text GLabel 10400 8400 1    50   Input ~ 0
Servo
Text GLabel 9300 6500 2    50   Input ~ 0
Servo
Wire Wire Line
	9300 6500 9100 6500
Text GLabel 9300 6000 2    50   Input ~ 0
FEU_AR
Wire Wire Line
	9300 6000 9100 6000
Text Notes 9150 6000 0    50   ~ 0
38
Text GLabel 9850 9650 0    50   Input ~ 0
FEU_AR
$Comp
L Transistor_BJT:BC847 Q4
U 1 1 604EE77A
P 10350 9650
F 0 "Q4" H 10541 9696 50  0000 L CNN
F 1 "BC847" H 10541 9605 50  0000 L CNN
F 2 "Package_TO_SOT_SMD:SOT-23_Handsoldering" H 10550 9575 50  0001 L CIN
F 3 "http://www.infineon.com/dgdl/Infineon-BC847SERIES_BC848SERIES_BC849SERIES_BC850SERIES-DS-v01_01-en.pdf?fileId=db3a304314dca389011541d4630a1657" H 10350 9650 50  0001 L CNN
F 4 "C397577" H 10350 9650 50  0001 C CNN "LCSC"
	1    10350 9650
	1    0    0    -1  
$EndComp
Wire Wire Line
	10450 9450 10600 9450
$Comp
L Device:R R21
U 1 1 605068FC
P 10000 9650
F 0 "R21" V 9793 9650 50  0000 C CNN
F 1 "1K" V 9884 9650 50  0000 C CNN
F 2 "Resistor_SMD:R_1206_3216Metric_Pad1.30x1.75mm_HandSolder" V 9930 9650 50  0001 C CNN
F 3 "~" H 10000 9650 50  0001 C CNN
F 4 "C4410" V 10000 9650 50  0001 C CNN "LCSC"
	1    10000 9650
	0    1    1    0   
$EndComp
$Comp
L power:+5V #PWR0156
U 1 1 60507B71
P 10300 9350
F 0 "#PWR0156" H 10300 9200 50  0001 C CNN
F 1 "+5V" V 10315 9478 50  0000 L CNN
F 2 "" H 10300 9350 50  0001 C CNN
F 3 "" H 10300 9350 50  0001 C CNN
	1    10300 9350
	0    -1   -1   0   
$EndComp
$Comp
L Device:R R22
U 1 1 6054A81F
P 10450 9350
F 0 "R22" V 10243 9350 50  0000 C CNN
F 1 "100" V 10334 9350 50  0000 C CNN
F 2 "Resistor_SMD:R_1206_3216Metric_Pad1.30x1.75mm_HandSolder" V 10380 9350 50  0001 C CNN
F 3 "~" H 10450 9350 50  0001 C CNN
F 4 "C17901" V 10450 9350 50  0001 C CNN "LCSC"
	1    10450 9350
	0    1    1    0   
$EndComp
$Comp
L Connector_Generic:Conn_01x02 J13
U 1 1 604F3041
P 10850 10450
F 0 "J13" H 10930 10442 50  0000 L CNN
F 1 "Feu_AV" H 10930 10351 50  0000 L CNN
F 2 "Connector_JST:JST_PH_B2B-PH-K_1x02_P2.00mm_Vertical" H 10850 10450 50  0001 C CNN
F 3 "~" H 10850 10450 50  0001 C CNN
	1    10850 10450
	1    0    0    -1  
$EndComp
$Comp
L Transistor_BJT:BC847 Q5
U 1 1 604F3525
P 10350 10750
F 0 "Q5" H 10541 10796 50  0000 L CNN
F 1 "BC847" H 10541 10705 50  0000 L CNN
F 2 "Package_TO_SOT_SMD:SOT-23_Handsoldering" H 10550 10675 50  0001 L CIN
F 3 "http://www.infineon.com/dgdl/Infineon-BC847SERIES_BC848SERIES_BC849SERIES_BC850SERIES-DS-v01_01-en.pdf?fileId=db3a304314dca389011541d4630a1657" H 10350 10750 50  0001 L CNN
F 4 "C397577" H 10350 10750 50  0001 C CNN "LCSC"
	1    10350 10750
	1    0    0    -1  
$EndComp
$Comp
L power:GND #PWR0157
U 1 1 604F52B2
P 10450 10950
F 0 "#PWR0157" H 10450 10700 50  0001 C CNN
F 1 "GND" V 10455 10822 50  0000 R CNN
F 2 "" H 10450 10950 50  0001 C CNN
F 3 "" H 10450 10950 50  0001 C CNN
	1    10450 10950
	1    0    0    -1  
$EndComp
$Comp
L Device:R R23
U 1 1 604F55EA
P 10000 10750
F 0 "R23" V 9793 10750 50  0000 C CNN
F 1 "1K" V 9884 10750 50  0000 C CNN
F 2 "Resistor_SMD:R_1206_3216Metric_Pad1.30x1.75mm_HandSolder" V 9930 10750 50  0001 C CNN
F 3 "~" H 10000 10750 50  0001 C CNN
F 4 "C4410" V 10000 10750 50  0001 C CNN "LCSC"
	1    10000 10750
	0    1    1    0   
$EndComp
$Comp
L Device:R R24
U 1 1 604F5B52
P 10500 10450
F 0 "R24" V 10293 10450 50  0000 C CNN
F 1 "100" V 10384 10450 50  0000 C CNN
F 2 "Resistor_SMD:R_1206_3216Metric_Pad1.30x1.75mm_HandSolder" V 10430 10450 50  0001 C CNN
F 3 "~" H 10500 10450 50  0001 C CNN
F 4 "C17901" V 10500 10450 50  0001 C CNN "LCSC"
	1    10500 10450
	0    1    1    0   
$EndComp
$Comp
L power:+5V #PWR0158
U 1 1 604F6033
P 10350 10450
F 0 "#PWR0158" H 10350 10300 50  0001 C CNN
F 1 "+5V" V 10365 10578 50  0000 L CNN
F 2 "" H 10350 10450 50  0001 C CNN
F 3 "" H 10350 10450 50  0001 C CNN
	1    10350 10450
	0    -1   -1   0   
$EndComp
Wire Wire Line
	10650 10550 10450 10550
Text GLabel 9850 10750 0    50   Input ~ 0
FEU_AV
Text GLabel 9500 4100 2    50   Input ~ 0
FEU_AV
Wire Wire Line
	9500 4100 9100 4100
Text Notes 9250 4100 0    50   ~ 0
12
Wire Wire Line
	2350 5800 2350 6200
Wire Wire Line
	2350 6200 3050 6200
$Comp
L Jumper:SolderJumper_2_Open JP1
U 1 1 6059DB82
P 4450 4200
F 0 "JP1" H 4450 4405 50  0000 C CNN
F 1 "Jp1" H 4450 4314 50  0000 C CNN
F 2 "Jumper:SolderJumper-2_P1.3mm_Open_Pad1.0x1.5mm" H 4450 4200 50  0001 C CNN
F 3 "~" H 4450 4200 50  0001 C CNN
	1    4450 4200
	1    0    0    -1  
$EndComp
Wire Wire Line
	4150 4200 4300 4200
Wire Wire Line
	4600 4200 4750 4200
Wire Wire Line
	4900 4200 4750 4200
Connection ~ 4750 4200
Text Label 7200 3800 0    50   ~ 0
46
Text Label 7200 3900 0    50   ~ 0
45
$Comp
L Device:Crystal Y2
U 1 1 606F6080
P 7050 2900
F 0 "Y2" V 7004 3031 50  0000 L CNN
F 1 "16MHz" V 7095 3031 50  0000 L CNN
F 2 "Crystal:Crystal_HC49-U_Vertical" H 7050 2900 50  0001 C CNN
F 3 "~" H 7050 2900 50  0001 C CNN
F 4 "C389709" V 7050 2900 50  0001 C CNN "LCSC"
F 5 "1842217" V 7050 2900 50  0001 C CNN "Farnell"
	1    7050 2900
	0    1    1    0   
$EndComp
$Comp
L Device:C C13
U 1 1 606F7232
P 6700 2750
F 0 "C13" V 6448 2750 50  0000 C CNN
F 1 "18pF" V 6539 2750 50  0000 C CNN
F 2 "Capacitor_SMD:C_1206_3216Metric_Pad1.33x1.80mm_HandSolder" H 6738 2600 50  0001 C CNN
F 3 "~" H 6700 2750 50  0001 C CNN
F 4 "C1644" V 6700 2750 50  0001 C CNN "LCSC"
	1    6700 2750
	0    1    1    0   
$EndComp
$Comp
L Device:C C14
U 1 1 606F85FF
P 6700 3050
F 0 "C14" V 6448 3050 50  0000 C CNN
F 1 "18pF" V 6539 3050 50  0000 C CNN
F 2 "Capacitor_SMD:C_1206_3216Metric_Pad1.33x1.80mm_HandSolder" H 6738 2900 50  0001 C CNN
F 3 "~" H 6700 3050 50  0001 C CNN
F 4 "C1644" V 6700 3050 50  0001 C CNN "LCSC"
	1    6700 3050
	0    1    1    0   
$EndComp
$Comp
L power:GND #PWR0110
U 1 1 606F88F6
P 6400 3150
F 0 "#PWR0110" H 6400 2900 50  0001 C CNN
F 1 "GND" H 6405 2977 50  0000 C CNN
F 2 "" H 6400 3150 50  0001 C CNN
F 3 "" H 6400 3150 50  0001 C CNN
	1    6400 3150
	1    0    0    -1  
$EndComp
Wire Wire Line
	7500 2800 7450 2800
Wire Wire Line
	7450 2800 7450 2750
Wire Wire Line
	7500 3000 7450 3000
Wire Wire Line
	7450 3000 7450 3050
Wire Wire Line
	6550 2750 6400 2750
Wire Wire Line
	6400 2750 6400 3050
Wire Wire Line
	6550 3050 6400 3050
Connection ~ 6400 3050
Wire Wire Line
	6400 3050 6400 3150
Connection ~ 7050 2750
Wire Wire Line
	7050 2750 6850 2750
Connection ~ 7050 3050
Wire Wire Line
	7050 3050 6850 3050
Wire Wire Line
	7050 2750 7450 2750
Wire Wire Line
	7050 3050 7450 3050
$Comp
L Jumper:SolderJumper_2_Open JP2
U 1 1 60845BC8
P 9450 4500
F 0 "JP2" H 9450 4705 50  0000 C CNN
F 1 "Jp1" H 9450 4614 50  0000 C CNN
F 2 "Jumper:SolderJumper-2_P1.3mm_Open_Pad1.0x1.5mm" H 9450 4500 50  0001 C CNN
F 3 "~" H 9450 4500 50  0001 C CNN
	1    9450 4500
	1    0    0    -1  
$EndComp
$Comp
L Jumper:SolderJumper_2_Open JP3
U 1 1 60846230
P 9450 4600
F 0 "JP3" H 9450 4805 50  0000 C CNN
F 1 "Jp1" H 9450 4714 50  0000 C CNN
F 2 "Jumper:SolderJumper-2_P1.3mm_Open_Pad1.0x1.5mm" H 9450 4600 50  0001 C CNN
F 3 "~" H 9450 4600 50  0001 C CNN
	1    9450 4600
	1    0    0    -1  
$EndComp
$Comp
L Jumper:SolderJumper_2_Open JP4
U 1 1 608464F4
P 9450 4700
F 0 "JP4" H 9450 4905 50  0000 C CNN
F 1 "Jp1" H 9450 4814 50  0000 C CNN
F 2 "Jumper:SolderJumper-2_P1.3mm_Open_Pad1.0x1.5mm" H 9450 4700 50  0001 C CNN
F 3 "~" H 9450 4700 50  0001 C CNN
	1    9450 4700
	1    0    0    -1  
$EndComp
$Comp
L Jumper:SolderJumper_2_Open JP5
U 1 1 6084673D
P 9450 4800
F 0 "JP5" H 9450 5005 50  0000 C CNN
F 1 "Jp1" H 9450 4914 50  0000 C CNN
F 2 "Jumper:SolderJumper-2_P1.3mm_Open_Pad1.0x1.5mm" H 9450 4800 50  0001 C CNN
F 3 "~" H 9450 4800 50  0001 C CNN
	1    9450 4800
	1    0    0    -1  
$EndComp
$Comp
L power:GND #PWR0159
U 1 1 608469A4
P 9900 4650
F 0 "#PWR0159" H 9900 4400 50  0001 C CNN
F 1 "GND" H 9905 4477 50  0000 C CNN
F 2 "" H 9900 4650 50  0001 C CNN
F 3 "" H 9900 4650 50  0001 C CNN
	1    9900 4650
	0    -1   -1   0   
$EndComp
Wire Wire Line
	9100 4500 9300 4500
Wire Wire Line
	9100 4600 9300 4600
Wire Wire Line
	9100 4700 9300 4700
Wire Wire Line
	9100 4800 9300 4800
Wire Wire Line
	9900 4650 9750 4650
Wire Wire Line
	9750 4650 9750 4600
Wire Wire Line
	9750 4500 9600 4500
Wire Wire Line
	9600 4600 9750 4600
Connection ~ 9750 4600
Wire Wire Line
	9750 4600 9750 4500
Wire Wire Line
	9600 4700 9750 4700
Wire Wire Line
	9750 4700 9750 4650
Connection ~ 9750 4650
Wire Wire Line
	9600 4800 9750 4800
Wire Wire Line
	9750 4800 9750 4700
Connection ~ 9750 4700
Text Label 9150 6500 0    50   ~ 0
5
$Comp
L Device:R R25
U 1 1 60A148B3
P 10550 6650
F 0 "R25" V 10343 6650 50  0000 C CNN
F 1 "10k" V 10434 6650 50  0000 C CNN
F 2 "Resistor_SMD:R_1206_3216Metric_Pad1.30x1.75mm_HandSolder" V 10480 6650 50  0001 C CNN
F 3 "~" H 10550 6650 50  0001 C CNN
F 4 "C17957" V 10550 6650 50  0001 C CNN "LCSC"
	1    10550 6650
	-1   0    0    1   
$EndComp
$Comp
L Device:R R13
U 1 1 60A15700
P 10550 6100
F 0 "R13" V 10343 6100 50  0000 C CNN
F 1 "10k" V 10434 6100 50  0000 C CNN
F 2 "Resistor_SMD:R_1206_3216Metric_Pad1.30x1.75mm_HandSolder" V 10480 6100 50  0001 C CNN
F 3 "~" H 10550 6100 50  0001 C CNN
F 4 "C17957" V 10550 6100 50  0001 C CNN "LCSC"
	1    10550 6100
	-1   0    0    1   
$EndComp
$Comp
L power:GND #PWR0160
U 1 1 60A15CBE
P 10550 5950
F 0 "#PWR0160" H 10550 5700 50  0001 C CNN
F 1 "GND" H 10555 5777 50  0000 C CNN
F 2 "" H 10550 5950 50  0001 C CNN
F 3 "" H 10550 5950 50  0001 C CNN
	1    10550 5950
	-1   0    0    1   
$EndComp
$Comp
L power:GND #PWR0161
U 1 1 60A1609B
P 10550 6800
F 0 "#PWR0161" H 10550 6550 50  0001 C CNN
F 1 "GND" H 10555 6627 50  0000 C CNN
F 2 "" H 10550 6800 50  0001 C CNN
F 3 "" H 10550 6800 50  0001 C CNN
	1    10550 6800
	1    0    0    -1  
$EndComp
Wire Wire Line
	10400 6450 10550 6450
Wire Wire Line
	10400 6350 10550 6350
Wire Wire Line
	10550 6250 10550 6350
Connection ~ 10550 6350
Wire Wire Line
	10550 6350 12000 6350
Wire Wire Line
	10550 6500 10550 6450
Connection ~ 10550 6450
Wire Wire Line
	10550 6450 12000 6450
Wire Wire Line
	12050 1000 12400 1000
Wire Wire Line
	12200 1100 12400 1100
Wire Wire Line
	12200 1200 12400 1200
Wire Wire Line
	12200 1300 12400 1300
Wire Wire Line
	13100 1200 12900 1200
Wire Wire Line
	13100 1100 12900 1100
Wire Wire Line
	13150 1000 12900 1000
$Comp
L Interface_Optical:TSOP312xx U?
U 1 1 613E0CFD
P 14200 8950
F 0 "U?" H 13734 9000 50  0000 R CNN
F 1 "TSOP312xx" H 13734 8909 50  0000 R CNN
F 2 "OptoDevice:Vishay_CAST-3Pin" H 14150 8575 50  0001 C CNN
F 3 "http://www.vishay.com/docs/82492/tsop312.pdf" H 14850 9250 50  0001 C CNN
	1    14200 8950
	-1   0    0    -1  
$EndComp
Wire Wire Line
	13600 8750 13800 8750
Wire Wire Line
	13600 8950 13800 8950
Wire Wire Line
	13600 9150 13800 9150
$EndSCHEMATC
