(module M5Core2 (layer F.Cu) (tedit 60C7AD21)
  (fp_text reference REF** (at 0 0.5) (layer F.SilkS)
    (effects (font (size 1 1) (thickness 0.15)))
  )
  (fp_text value M5Core2 (at 0 -0.5) (layer F.Fab)
    (effects (font (size 1 1) (thickness 0.15)))
  )
  (fp_line (start 27 27) (end 27 -27) (layer F.CrtYd) (width 0.12))
  (fp_line (start -27 27) (end 27 27) (layer F.CrtYd) (width 0.12))
  (fp_line (start -27 -27) (end -27 27) (layer F.CrtYd) (width 0.12))
  (fp_line (start -27 -27) (end 27 -27) (layer F.CrtYd) (width 0.12))
  (pad 1 thru_hole rect (at 20.32 -17.78) (size 1.524 1.524) (drill 0.762) (layers *.Cu *.Mask))
  (pad 2 thru_hole circle (at 17.78 -17.78) (size 1.524 1.524) (drill 0.762) (layers *.Cu *.Mask))
  (pad 3 thru_hole circle (at 20.32 -15.24) (size 1.524 1.524) (drill 0.762) (layers *.Cu *.Mask))
  (pad 4 thru_hole circle (at 17.78 -15.24) (size 1.524 1.524) (drill 0.762) (layers *.Cu *.Mask))
  (pad 5 thru_hole circle (at 20.32 -12.7) (size 1.524 1.524) (drill 0.762) (layers *.Cu *.Mask))
  (pad 6 thru_hole circle (at 17.78 -12.7) (size 1.524 1.524) (drill 0.762) (layers *.Cu *.Mask))
  (pad 7 thru_hole circle (at 20.32 -10.16) (size 1.524 1.524) (drill 0.762) (layers *.Cu *.Mask))
  (pad 8 thru_hole circle (at 17.78 -10.16) (size 1.524 1.524) (drill 0.762) (layers *.Cu *.Mask))
  (pad 9 thru_hole circle (at 20.32 -7.62) (size 1.524 1.524) (drill 0.762) (layers *.Cu *.Mask))
  (pad 10 thru_hole circle (at 17.78 -7.62) (size 1.524 1.524) (drill 0.762) (layers *.Cu *.Mask))
  (pad 11 thru_hole circle (at 20.32 -5.08) (size 1.524 1.524) (drill 0.762) (layers *.Cu *.Mask))
  (pad 12 thru_hole circle (at 17.78 -5.08) (size 1.524 1.524) (drill 0.762) (layers *.Cu *.Mask))
  (pad 13 thru_hole circle (at 20.32 -2.54) (size 1.524 1.524) (drill 0.762) (layers *.Cu *.Mask))
  (pad 14 thru_hole circle (at 17.78 -2.54) (size 1.524 1.524) (drill 0.762) (layers *.Cu *.Mask))
  (pad 15 thru_hole circle (at 20.32 0) (size 1.524 1.524) (drill 0.762) (layers *.Cu *.Mask))
  (pad 16 thru_hole circle (at 17.78 0) (size 1.524 1.524) (drill 0.762) (layers *.Cu *.Mask))
  (pad 17 thru_hole circle (at 20.32 2.54) (size 1.524 1.524) (drill 0.762) (layers *.Cu *.Mask))
  (pad 18 thru_hole circle (at 17.78 2.54) (size 1.524 1.524) (drill 0.762) (layers *.Cu *.Mask))
  (pad 19 thru_hole circle (at 20.32 5.08) (size 1.524 1.524) (drill 0.762) (layers *.Cu *.Mask))
  (pad 20 thru_hole circle (at 17.78 5.08) (size 1.524 1.524) (drill 0.762) (layers *.Cu *.Mask))
  (pad 21 thru_hole circle (at 20.32 7.62) (size 1.524 1.524) (drill 0.762) (layers *.Cu *.Mask))
  (pad 22 thru_hole circle (at 17.78 7.62) (size 1.524 1.524) (drill 0.762) (layers *.Cu *.Mask))
  (pad 23 thru_hole circle (at 20.32 10.16) (size 1.524 1.524) (drill 0.762) (layers *.Cu *.Mask))
  (pad 24 thru_hole circle (at 17.78 10.16) (size 1.524 1.524) (drill 0.762) (layers *.Cu *.Mask))
  (pad 25 thru_hole circle (at 20.32 12.7) (size 1.524 1.524) (drill 0.762) (layers *.Cu *.Mask))
  (pad 26 thru_hole circle (at 17.78 12.7) (size 1.524 1.524) (drill 0.762) (layers *.Cu *.Mask))
  (pad 27 thru_hole circle (at 20.32 15.24) (size 1.524 1.524) (drill 0.762) (layers *.Cu *.Mask))
  (pad 28 thru_hole circle (at 17.78 15.24) (size 1.524 1.524) (drill 0.762) (layers *.Cu *.Mask))
  (pad 29 thru_hole circle (at 20.32 17.78) (size 1.524 1.524) (drill 0.762) (layers *.Cu *.Mask))
  (pad 30 thru_hole circle (at 17.78 17.78) (size 1.524 1.524) (drill 0.762) (layers *.Cu *.Mask))
  (pad "" np_thru_hole circle (at -22 -22) (size 3.5 3.5) (drill 3.5) (layers *.Cu *.Mask))
  (pad "" np_thru_hole circle (at 22 -22) (size 3.5 3.5) (drill 3.5) (layers *.Cu *.Mask))
  (pad "" np_thru_hole circle (at -22 22) (size 3.5 3.5) (drill 3.5) (layers *.Cu *.Mask))
  (pad "" np_thru_hole circle (at 22 22) (size 3.5 3.5) (drill 3.5) (layers *.Cu *.Mask))
)
